date,getuptime,jogging,french_read,french_listen,french_speak,teeth_floss,teeth_dinner,teeth_lunch,teeth_breakfast,gobedtime,meat,vacuuming
2015-09-08,08:11,F,T,F,F,F,T,F,T,23:14,vegetarian,
2015-09-09,10:16,T,F,F,F,F,F,F,T,23:06,vegetarian,T
2015-09-10,07:39,F,T,T,T,F,F,F,T,22:55,chicken,T
2015-09-11,08:30,T,F,F,F,F,T,F,T,23:02,pork,
2015-09-12,08:15,T,T,F,F,F,T,F,T,22:54,pork,
2015-09-13,06:21,F,T,T,F,F,F,T,F,00:21,pork,
2015-09-14,07:38,F,F,F,F,F,F,F,T,22:36,pork,
2015-09-15,06:54,F,F,F,F,F,F,F,F,22:50,cow,
2015-09-16,06:56,T,F,F,T,F,T,T,F,00:48,cow,
2015-09-17,07:16,T,F,F,F,F,T,F,F,23:02,pork,
2015-09-18,07:06,T,F,T,F,F,T,F,T,01:14,chicken,T
2015-09-19,07:58,F,T,F,F,F,T,F,T,22:54,chicken,
2015-09-20,07:30,F,F,F,F,F,T,F,F,00:22,vegan,
2015-09-21,07:05,F,F,F,F,F,F,F,T,21:21,cow,
2015-09-22,07:18,F,F,T,F,F,F,T,F,23:09,chicken,
2015-09-23,07:13,T,F,T,F,F,F,F,F,21:25,chicken,
2015-09-24,08:00,F,F,T,F,F,T,F,F,23:51,chicken,
2015-09-25,06:52,F,F,T,T,F,F,F,F,21:47,chicken,
2015-09-26,07:13,F,F,F,F,F,F,F,F,23:17,fish,
2015-09-27,06:26,F,F,F,F,F,F,F,F,22:43,fish,
2015-09-28,05:18,T,T,T,T,F,F,F,T,21:51,fish,
2015-09-29,07:26,F,T,F,F,F,T,F,F,21:23,vegan,
2015-09-30,07:35,F,F,F,T,F,F,F,T,22:29,vegetarian,T
2015-10-01,06:30,T,F,F,F,F,F,T,F,00:44,vegan,
2015-10-02,08:31,F,F,F,F,F,T,F,T,22:42,pork,
2015-10-03,06:02,T,F,T,F,F,T,F,F,23:55,pork,
2015-10-04,07:02,F,F,F,T,F,F,T,T,22:57,cow,
2015-10-05,06:53,F,T,T,F,F,F,F,T,23:53,pork,
2015-10-06,08:01,T,F,F,F,F,F,F,T,21:10,cow,
2015-10-07,07:59,T,F,F,F,F,F,F,F,22:36,vegan,
2015-10-08,07:06,F,F,T,T,F,T,F,T,23:57,chicken,
2015-10-09,07:15,T,F,T,F,F,T,F,F,22:50,chicken,
2015-10-10,06:24,F,F,T,F,F,F,F,T,22:55,pork,
2015-10-11,05:41,F,F,T,F,F,F,F,F,22:34,pork,
2015-10-12,06:46,F,F,F,F,F,F,F,T,00:09,chicken,
2015-10-13,07:06,F,T,F,F,F,T,F,T,23:18,fish,
2015-10-14,07:49,T,T,T,F,F,F,F,T,23:03,pork,
2015-10-15,07:48,T,F,F,T,F,T,F,F,23:39,chicken,
2015-10-16,06:45,T,F,F,T,F,F,F,F,23:35,pork,
2015-10-17,06:48,T,F,F,F,F,F,F,T,23:13,pork,
2015-10-18,06:18,T,T,F,F,F,T,F,F,00:33,pork,T
2015-10-19,06:03,T,T,T,T,T,F,F,F,22:56,cow,
2015-10-20,05:52,T,F,F,T,F,T,T,F,23:17,chicken,
2015-10-21,08:18,F,F,F,T,F,T,F,F,22:21,vegan,
2015-10-22,06:40,T,T,T,F,F,F,F,T,23:09,chicken,
2015-10-23,06:42,T,F,F,F,F,T,F,F,00:35,pork,
2015-10-24,06:10,F,T,T,F,T,T,F,F,22:21,fish,
2015-10-25,07:31,T,F,T,F,F,F,F,F,21:52,chicken,
2015-10-26,05:55,T,T,T,F,F,T,F,F,00:00,pork,
2015-10-27,06:51,T,T,T,F,F,T,F,F,22:51,pork,
2015-10-28,06:24,F,F,F,F,F,T,T,T,23:06,pork,
2015-10-29,07:15,T,T,F,T,F,T,F,T,22:57,pork,
2015-10-30,06:40,T,F,T,F,F,T,F,F,23:05,pork,
2015-10-31,06:13,T,T,F,T,F,T,F,F,23:51,cow,T
2015-11-01,06:59,T,T,T,T,F,F,F,T,22:10,fish,
2015-11-02,07:17,F,F,F,F,F,T,F,T,21:59,pork,
2015-11-03,07:03,F,T,F,F,F,T,F,T,23:05,cow,
2015-11-04,07:12,T,F,F,F,F,T,F,T,21:24,fish,
2015-11-05,06:35,T,T,F,F,F,T,F,T,21:38,vegetarian,
2015-11-06,06:45,F,F,F,F,F,F,F,T,00:52,fish,
2015-11-07,06:33,F,T,F,F,F,T,F,T,23:45,vegetarian,
2015-11-08,06:46,F,F,F,F,F,T,F,T,22:59,vegetarian,
2015-11-09,06:27,F,F,F,T,F,F,F,F,00:14,vegan,
2015-11-10,05:51,F,T,F,T,F,F,F,F,21:58,pork,
2015-11-11,07:07,F,F,F,F,F,T,F,T,22:41,cow,
2015-11-12,06:44,T,F,T,T,F,T,F,T,23:37,chicken,
2015-11-13,05:55,F,F,T,F,F,T,F,T,23:53,fish,
2015-11-14,07:19,F,F,F,T,F,F,F,F,23:31,fish,
2015-11-15,06:24,F,F,F,F,F,F,F,F,20:28,vegetarian,
2015-11-16,07:02,T,F,F,F,F,T,F,T,22:02,fish,
2015-11-17,07:29,T,T,T,T,F,F,T,T,23:29,fish,T
2015-11-18,07:05,F,F,T,F,F,T,F,F,22:39,fish,
2015-11-19,07:46,F,T,T,T,F,T,F,F,01:32,fish,
2015-11-20,06:11,T,T,F,F,F,T,F,T,23:56,fish,
2015-11-21,07:16,F,F,T,T,T,F,F,T,23:33,fish,
2015-11-22,06:33,F,F,T,F,T,F,T,F,21:53,fish,
2015-11-23,06:25,F,F,F,F,F,F,F,F,22:58,vegetarian,
2015-11-24,06:37,F,F,F,F,F,T,F,F,23:14,fish,
2015-11-25,06:48,T,F,F,F,F,F,F,F,00:08,fish,
2015-11-26,07:02,T,F,F,T,F,T,F,T,23:53,vegetarian,
2015-11-27,06:13,T,T,T,F,F,T,F,T,00:02,fish,
2015-11-28,07:36,F,F,F,F,F,F,F,F,22:05,vegetarian,
2015-11-29,07:19,F,T,F,F,F,T,T,T,00:25,vegan,
2015-11-30,05:59,F,T,F,T,F,F,F,T,21:37,fish,T
2015-12-01,08:00,F,T,F,T,F,T,F,F,22:28,chicken,
2015-12-02,08:16,F,F,T,F,T,T,F,F,23:26,chicken,
2015-12-03,07:47,F,F,F,F,F,F,F,T,22:51,cow,
2015-12-04,06:53,T,T,F,F,F,T,F,F,22:00,fish,
2015-12-05,06:17,F,F,T,T,F,F,F,T,22:11,chicken,
2015-12-06,07:42,F,F,F,T,F,T,F,F,21:27,chicken,
2015-12-07,06:44,F,F,F,T,F,T,F,T,23:32,pork,
2015-12-08,07:49,T,F,T,F,F,F,F,T,00:16,pork,
2015-12-09,07:08,T,T,F,T,F,F,F,F,22:54,vegetarian,
2015-12-10,07:39,T,T,F,F,F,F,F,T,22:36,chicken,
2015-12-11,07:14,F,F,F,F,F,T,F,T,21:32,chicken,
2015-12-12,07:28,F,F,F,T,F,F,F,T,23:55,fish,
2015-12-13,07:00,F,F,T,F,F,T,F,T,01:13,fish,
2015-12-14,08:11,F,F,F,F,F,T,F,F,21:12,fish,
2015-12-15,07:05,F,F,F,F,F,T,F,F,21:56,vegetarian,
2015-12-16,07:16,T,F,F,F,F,T,F,T,22:19,fish,T
2015-12-17,08:15,T,T,F,T,F,F,F,F,22:26,fish,
2015-12-18,06:06,T,T,F,F,F,T,F,T,23:14,fish,
2015-12-19,06:09,F,F,F,F,F,T,T,F,00:37,fish,
2015-12-20,07:39,F,F,F,T,F,T,F,T,00:01,cow,
2015-12-21,06:13,F,F,F,F,F,F,F,F,23:32,cow,
2015-12-22,08:18,T,F,F,T,F,T,F,F,22:17,cow,
2015-12-23,06:43,F,F,F,F,F,T,F,F,21:53,vegan,
2015-12-24,06:30,F,F,F,F,F,F,F,T,22:12,pork,
2015-12-25,08:17,T,T,F,T,F,T,F,F,00:33,cow,
2015-12-26,07:59,F,T,F,F,F,T,T,T,22:56,cow,
2015-12-27,08:15,F,T,F,T,F,T,F,F,22:33,vegan,
2015-12-28,07:36,F,F,F,F,F,F,T,T,22:49,pork,
2015-12-29,06:26,T,F,F,F,F,F,F,T,23:49,cow,
2015-12-30,08:16,F,T,T,T,F,T,F,F,21:41,vegetarian,
2015-12-31,06:49,T,T,F,F,F,F,F,F,00:25,chicken,
2016-01-01,07:32,F,F,F,T,F,T,F,T,23:09,vegan,
2016-01-02,07:38,F,T,F,F,F,T,T,F,22:47,vegan,T
2016-01-03,06:54,F,F,T,F,F,T,F,F,23:27,vegetarian,
2016-01-04,07:25,F,T,F,F,F,F,T,F,23:13,cow,
2016-01-05,07:37,F,F,F,F,F,F,F,T,22:39,pork,
2016-01-06,07:15,F,T,F,F,F,T,F,T,22:45,chicken,
2016-01-07,06:16,T,T,T,F,F,T,F,F,22:08,chicken,
2016-01-08,07:12,F,T,F,F,F,F,F,F,23:39,cow,
2016-01-09,07:53,T,F,F,T,F,F,F,F,22:28,cow,
2016-01-10,06:32,F,T,F,T,F,F,F,F,22:03,pork,
2016-01-11,06:54,F,T,T,T,F,T,F,T,23:10,pork,
2016-01-12,06:43,F,T,F,F,F,F,F,F,00:20,pork,
2016-01-13,08:14,T,F,F,F,F,T,F,F,22:57,pork,T
2016-01-14,07:27,F,T,T,F,F,F,F,F,22:24,pork,
2016-01-15,07:16,T,F,F,F,F,F,F,T,23:24,pork,
2016-01-16,06:29,F,T,F,F,F,F,F,F,00:56,vegetarian,
2016-01-17,07:22,T,F,T,F,F,T,F,T,21:33,vegan,
2016-01-18,06:33,F,F,F,T,F,T,F,F,23:23,fish,
2016-01-19,07:01,F,F,T,T,F,F,F,T,23:12,vegetarian,
2016-01-20,06:35,F,T,F,F,F,F,F,F,00:10,pork,
2016-01-21,07:27,T,T,F,T,F,F,F,F,23:59,pork,
2016-01-22,07:23,T,F,F,T,F,T,T,T,22:49,vegan,
2016-01-23,06:52,F,F,F,F,F,F,F,F,21:19,vegan,
2016-01-24,07:16,T,T,T,T,F,T,F,F,23:48,vegetarian,
2016-01-25,06:16,T,F,F,F,F,F,F,F,22:10,vegetarian,
2016-01-26,06:00,T,T,T,F,F,F,T,T,22:03,vegetarian,T
2016-01-27,07:18,F,T,F,F,F,T,F,T,00:09,pork,
2016-01-28,07:07,F,T,F,F,F,T,T,T,22:05,pork,
2016-01-29,07:25,F,F,F,F,F,F,F,F,00:24,chicken,
2016-01-30,08:35,T,F,F,F,F,T,F,F,23:20,pork,
2016-01-31,07:38,T,T,F,F,F,F,F,T,23:19,cow,
2016-02-01,06:23,F,T,F,F,F,F,F,T,23:18,cow,
2016-02-02,07:45,F,F,T,T,F,T,F,T,21:22,fish,
2016-02-03,06:07,F,T,F,T,F,T,F,T,21:13,chicken,
2016-02-04,06:42,T,T,T,T,F,T,F,T,23:13,chicken,
2016-02-05,06:57,F,T,T,F,F,T,F,F,23:34,fish,
2016-02-06,08:09,F,T,F,F,F,F,T,T,23:05,vegetarian,
2016-02-07,06:30,F,T,T,F,F,T,F,F,22:11,vegetarian,
2016-02-08,06:27,T,T,F,F,F,T,F,T,23:01,vegetarian,
2016-02-09,06:56,T,F,T,F,F,T,F,T,22:55,fish,T
2016-02-10,06:33,F,F,T,F,F,F,F,F,22:03,pork,
2016-02-11,07:45,F,F,T,F,F,T,F,F,00:01,cow,
2016-02-12,06:17,T,F,F,F,T,T,F,T,21:16,fish,
2016-02-13,06:14,F,T,T,T,F,T,T,F,23:35,pork,
2016-02-14,06:42,F,F,F,F,F,T,F,F,23:23,chicken,
2016-02-15,06:40,F,F,F,F,F,T,F,F,00:01,chicken,
2016-02-16,08:17,F,F,T,F,F,T,F,T,22:00,fish,
2016-02-17,07:38,T,F,T,F,T,F,F,T,23:06,chicken,
2016-02-18,07:04,F,T,T,T,F,T,F,T,01:10,vegetarian,
2016-02-19,06:11,F,F,F,F,F,F,F,F,23:40,pork,
2016-02-20,07:34,T,F,F,F,F,T,F,T,23:06,chicken,
2016-02-21,06:20,F,F,T,T,F,T,F,F,23:32,fish,
2016-02-22,05:58,T,F,T,T,F,T,F,F,23:05,vegetarian,
2016-02-23,07:48,T,F,F,F,F,F,F,T,01:11,vegan,T
2016-02-24,07:13,F,F,T,F,F,F,F,F,23:59,vegetarian,
2016-02-25,07:37,F,F,T,F,F,F,T,T,22:55,vegetarian,
2016-02-26,07:13,T,F,F,T,F,T,F,F,23:15,chicken,
2016-02-27,07:34,F,T,T,T,F,T,F,T,22:37,chicken,
2016-02-28,06:34,F,F,T,F,F,F,F,T,00:13,pork,
2016-02-29,06:19,T,F,T,F,F,T,F,T,21:36,pork,
2016-03-01,07:27,F,F,T,F,T,T,F,F,21:24,pork,
2016-03-02,06:28,F,F,F,T,F,T,F,F,00:28,pork,
2016-03-03,06:32,F,F,F,T,F,F,T,F,01:09,chicken,
2016-03-04,06:42,F,T,F,F,F,F,T,F,23:28,vegan,
2016-03-05,07:01,T,F,T,F,F,F,T,T,23:07,vegan,
2016-03-06,06:46,T,T,F,F,T,F,T,T,23:39,vegetarian,
2016-03-07,06:05,F,F,F,F,F,F,F,F,22:21,vegetarian,
2016-03-08,06:34,F,F,T,F,F,T,T,F,23:10,cow,
2016-03-09,05:31,T,F,T,T,T,T,F,T,23:02,cow,
2016-03-10,07:25,F,F,F,F,F,F,F,T,23:38,vegetarian,T
2016-03-11,05:56,F,F,F,T,F,T,F,T,21:27,cow,
2016-03-12,06:16,F,F,T,F,T,T,F,F,22:30,chicken,
2016-03-13,07:02,F,T,F,F,F,T,T,T,23:51,chicken,
2016-03-14,06:30,F,F,F,F,F,F,F,F,22:19,vegetarian,
2016-03-15,08:02,F,F,T,F,F,T,F,T,22:00,fish,
2016-03-16,06:08,T,F,T,F,F,F,F,F,01:03,pork,
2016-03-17,07:11,T,F,F,F,F,F,T,F,23:02,chicken,
2016-03-18,06:58,T,F,F,F,F,T,F,F,22:25,pork,
2016-03-19,06:13,T,T,T,F,F,T,F,F,21:18,cow,
2016-03-20,07:21,F,F,T,T,F,T,T,F,23:44,chicken,
2016-03-21,06:53,F,T,F,T,F,T,F,T,23:42,fish,
2016-03-22,07:31,T,F,F,F,F,T,T,F,22:42,cow,
2016-03-23,07:33,F,F,T,F,F,F,F,F,21:54,cow,T
2016-03-24,08:27,F,T,F,T,F,T,F,T,22:59,vegetarian,
2016-03-25,07:53,F,F,F,F,F,T,F,T,22:10,vegetarian,
2016-03-26,06:45,F,T,F,F,F,T,F,T,22:03,vegetarian,
2016-03-27,06:50,F,F,F,T,F,F,F,T,22:54,vegan,
2016-03-28,07:44,F,F,F,F,F,T,F,F,21:57,pork,
2016-03-29,07:26,T,T,T,F,F,F,F,T,23:15,cow,
2016-03-30,07:26,F,F,F,F,T,F,F,F,23:36,fish,
2016-03-31,05:55,T,F,F,F,F,T,F,F,22:10,chicken,
2016-04-01,06:59,F,F,F,T,F,F,F,T,21:38,pork,
2016-04-02,06:30,T,F,F,F,F,F,F,T,00:34,pork,
2016-04-03,07:11,F,T,F,F,F,T,F,T,22:04,chicken,
2016-04-04,06:56,T,T,F,F,F,F,F,F,22:20,vegan,
2016-04-05,07:36,T,T,F,T,F,T,F,F,23:13,pork,
2016-04-06,07:13,F,T,F,T,F,F,F,F,23:36,pork,
2016-04-07,07:31,F,T,T,F,F,T,F,F,22:45,fish,T
2016-04-08,06:41,F,F,F,T,F,T,T,F,23:28,vegetarian,
2016-04-09,06:22,F,F,F,T,F,F,T,F,22:36,vegetarian,
2016-04-10,06:44,F,F,T,F,F,F,F,F,22:02,vegetarian,
2016-04-11,06:59,T,T,F,T,F,T,F,F,00:26,fish,
2016-04-12,07:15,T,T,F,F,F,T,T,T,01:29,fish,
2016-04-13,08:30,T,T,T,T,F,F,F,T,00:42,vegetarian,
2016-04-14,06:58,T,F,F,T,F,F,F,F,23:09,fish,
2016-04-15,06:22,F,T,F,T,F,T,T,F,00:50,cow,
2016-04-16,06:46,F,F,F,T,F,T,F,F,23:21,chicken,
2016-04-17,06:41,T,T,F,F,F,F,F,T,22:31,chicken,
2016-04-18,07:19,T,T,T,F,F,F,F,F,23:28,pork,
2016-04-19,05:58,F,F,F,F,F,F,F,F,22:54,pork,
2016-04-20,07:03,T,F,T,T,F,T,F,T,22:01,fish,
2016-04-21,07:06,F,F,T,T,F,T,F,T,22:06,vegetarian,
2016-04-22,07:09,F,F,T,F,F,T,F,T,23:48,vegan,
2016-04-23,06:36,F,F,F,T,F,T,F,F,21:09,vegan,
2016-04-24,06:50,F,F,F,T,F,T,F,F,23:36,vegetarian,
2016-04-25,06:03,F,F,T,T,F,T,F,F,21:22,vegetarian,
2016-04-26,06:40,F,F,T,F,F,T,F,F,20:53,vegetarian,T
2016-04-27,06:38,F,F,T,F,F,F,F,F,21:10,fish,
2016-04-28,07:17,F,T,T,F,F,T,F,T,00:58,pork,
2016-04-29,06:14,T,F,F,F,F,F,F,F,22:48,cow,
2016-04-30,07:31,T,T,F,F,F,T,T,F,23:05,cow,
2016-05-01,08:00,T,F,T,T,F,T,T,F,00:25,chicken,
2016-05-02,05:37,T,F,F,F,F,F,F,F,23:56,fish,
2016-05-03,07:17,F,F,T,F,F,T,F,T,21:37,fish,
2016-05-04,07:27,F,T,F,T,F,F,F,F,23:52,fish,
2016-05-05,06:35,F,F,F,T,F,T,F,T,23:11,fish,
2016-05-06,06:44,F,T,T,T,F,F,F,T,22:39,vegan,T
2016-05-07,06:55,F,F,T,T,F,T,T,F,23:01,vegan,
2016-05-08,06:48,T,F,T,F,F,T,F,F,00:17,cow,
2016-05-09,06:48,F,T,T,F,F,T,F,F,22:07,fish,
2016-05-10,05:53,T,F,T,F,F,F,F,T,23:24,fish,
2016-05-11,07:46,F,F,F,T,F,F,F,F,22:59,fish,
2016-05-12,07:43,T,T,T,T,F,T,F,T,21:12,chicken,
2016-05-13,06:27,F,F,F,T,F,T,F,T,22:12,pork,
2016-05-14,06:01,T,T,T,F,F,T,T,F,23:12,pork,
2016-05-15,07:21,F,T,T,F,F,F,T,F,00:18,cow,
2016-05-16,06:37,T,F,T,T,F,T,F,F,00:00,cow,
2016-05-17,07:06,F,F,F,F,F,T,F,T,23:36,cow,
2016-05-18,06:47,T,T,F,T,F,T,T,F,22:11,cow,
2016-05-19,07:28,F,F,F,T,F,T,F,T,00:48,cow,
2016-05-20,07:28,F,F,F,T,F,T,F,T,23:13,chicken,T
2016-05-21,06:31,T,F,F,F,F,T,F,F,22:00,fish,
2016-05-22,06:05,T,F,F,T,F,T,T,F,22:49,chicken,
2016-05-23,05:57,F,F,F,T,F,T,T,T,23:54,chicken,
2016-05-24,07:24,T,F,T,F,F,F,F,T,23:00,pork,
2016-05-25,06:12,T,F,T,F,F,T,F,T,23:53,cow,
2016-05-26,06:40,T,F,F,T,F,F,F,F,00:06,chicken,
2016-05-27,06:36,F,T,T,F,F,T,T,F,23:24,chicken,
2016-05-28,06:58,F,T,T,F,F,T,F,T,22:09,fish,
2016-05-29,05:43,F,T,T,F,F,F,F,F,23:08,fish,
2016-05-30,07:08,T,F,F,T,F,T,T,T,23:03,pork,
2016-05-31,07:21,T,F,F,T,F,F,F,T,00:52,vegan,
2016-06-01,07:04,T,T,F,T,F,F,F,F,21:22,vegetarian,
2016-06-02,06:48,F,F,F,F,F,F,F,T,22:52,vegetarian,
2016-06-03,07:04,T,T,F,T,F,T,T,T,22:25,vegetarian,
2016-06-04,07:16,T,F,T,F,F,F,F,F,23:20,vegan,T
2016-06-05,05:09,F,F,F,F,F,T,F,T,20:34,vegan,
2016-06-06,08:18,F,F,F,F,T,T,F,F,00:07,vegan,
2016-06-07,07:16,F,F,F,T,F,T,F,T,23:01,cow,
2016-06-08,06:34,T,F,T,T,F,T,T,T,21:09,cow,
2016-06-09,06:44,T,T,F,F,F,F,F,T,22:38,pork,
2016-06-10,07:20,F,F,F,F,F,F,F,F,23:37,chicken,
2016-06-11,06:55,F,F,F,T,F,F,F,T,21:25,chicken,
2016-06-12,05:39,F,F,T,F,F,T,F,F,23:00,chicken,
2016-06-13,08:23,F,T,F,T,F,T,F,F,21:57,chicken,
2016-06-14,06:56,T,F,F,T,F,T,F,F,22:27,chicken,
2016-06-15,07:41,T,F,T,F,F,F,F,F,23:02,fish,
2016-06-16,06:32,T,F,T,F,F,F,F,F,23:11,vegetarian,
2016-06-17,08:01,T,F,F,F,F,T,F,T,22:32,fish,
2016-06-18,07:11,T,T,T,T,F,F,F,F,23:16,vegetarian,
2016-06-19,07:24,T,T,F,F,F,F,F,F,23:49,vegetarian,
2016-06-20,06:18,T,F,T,T,F,T,T,F,22:43,vegetarian,
2016-06-21,07:48,F,F,F,F,F,T,F,T,00:26,vegan,T
2016-06-22,07:28,T,F,F,T,F,T,F,T,00:28,vegetarian,
2016-06-23,07:52,F,T,F,F,F,F,F,T,22:34,vegetarian,
2016-06-24,06:35,F,T,F,F,F,T,F,F,22:22,vegetarian,
2016-06-25,06:41,F,T,F,T,F,T,F,F,21:20,vegetarian,
2016-06-26,08:32,T,T,T,T,F,F,T,T,22:52,cow,
2016-06-27,06:18,T,T,T,F,F,T,T,T,22:38,cow,
2016-06-28,06:55,F,T,T,F,F,T,F,F,23:47,fish,
2016-06-29,07:45,F,F,T,T,F,F,F,T,21:29,fish,
2016-06-30,07:04,F,F,T,F,F,T,F,F,22:43,fish,
2016-07-01,07:23,F,F,F,F,F,T,F,F,23:58,fish,
2016-07-02,06:44,F,T,F,T,F,T,F,T,22:16,chicken,
2016-07-03,07:15,T,T,T,F,F,T,F,F,22:14,pork,
2016-07-04,06:08,F,T,F,F,F,F,F,T,21:33,cow,
2016-07-05,08:06,T,F,F,T,F,F,F,T,01:37,fish,T
2016-07-06,06:55,F,F,F,F,F,F,F,F,22:15,fish,
2016-07-07,06:33,F,F,F,F,F,F,F,T,21:42,vegan,
2016-07-08,07:27,F,F,F,T,F,F,T,F,22:12,vegan,
2016-07-09,06:42,F,T,F,F,F,F,F,F,22:14,cow,
2016-07-10,06:07,T,T,T,T,F,F,F,T,22:44,cow,
2016-07-11,06:06,T,T,F,F,F,T,F,T,23:50,vegetarian,
2016-07-12,07:28,F,F,F,T,F,T,T,T,22:42,cow,
2016-07-13,06:54,T,T,F,F,F,T,F,T,22:05,cow,
2016-07-14,06:55,F,F,T,F,F,T,F,F,21:33,cow,
2016-07-15,07:43,F,T,F,F,F,F,F,T,23:01,cow,
2016-07-16,06:15,F,T,F,F,T,T,T,F,23:03,pork,
2016-07-17,06:31,T,F,T,T,F,F,F,T,00:32,cow,
2016-07-18,06:45,F,T,T,T,F,T,F,F,23:06,vegan,
2016-07-19,07:04,F,F,T,T,F,F,F,F,22:54,vegetarian,T
2016-07-20,06:58,F,F,F,F,F,T,F,T,21:57,vegetarian,
2016-07-21,06:49,F,T,F,T,F,F,F,F,22:42,vegetarian,
2016-07-22,06:58,F,F,F,F,F,T,F,T,22:34,pork,
2016-07-23,06:56,T,F,T,T,F,T,F,F,22:38,pork,
2016-07-24,06:31,F,F,T,T,F,T,F,F,22:02,chicken,
2016-07-25,06:27,F,F,F,F,F,T,F,F,23:32,chicken,
2016-07-26,07:11,T,F,F,F,F,T,F,T,22:51,chicken,
2016-07-27,06:24,F,F,F,F,F,F,T,F,22:48,chicken,
2016-07-28,06:14,T,F,F,F,F,F,F,F,21:17,chicken,
2016-07-29,06:48,T,T,T,T,F,T,F,F,23:30,chicken,
2016-07-30,06:54,F,F,T,T,F,F,F,T,23:29,chicken,T
2016-07-31,08:30,F,F,F,T,F,T,F,F,22:10,fish,
2016-08-01,06:32,F,F,F,T,F,F,F,T,23:59,chicken,
2016-08-02,07:38,F,T,F,T,F,F,F,F,21:38,pork,
2016-08-03,07:30,T,T,T,F,F,T,F,F,22:59,chicken,
2016-08-04,06:12,T,F,F,F,F,F,T,T,22:44,pork,
2016-08-05,07:31,T,F,F,F,F,T,F,F,21:41,pork,
2016-08-06,06:13,T,F,F,F,F,T,F,F,23:11,chicken,
2016-08-07,05:14,T,T,F,F,F,F,F,F,00:42,fish,
2016-08-08,07:24,T,T,F,F,F,F,F,F,23:04,chicken,
2016-08-09,05:50,F,T,F,F,F,T,F,T,22:32,vegan,
2016-08-10,07:18,F,F,F,F,F,T,F,F,23:27,fish,
2016-08-11,06:33,F,F,F,F,F,T,T,F,23:06,vegan,
2016-08-12,08:06,T,T,F,F,F,F,F,F,23:02,vegan,
2016-08-13,07:43,F,T,F,T,F,T,F,F,22:34,cow,
2016-08-14,06:42,F,F,F,F,F,T,F,F,00:25,pork,T
2016-08-15,06:32,T,F,T,F,F,F,F,F,23:27,chicken,
2016-08-16,06:11,T,F,F,F,F,F,F,T,22:28,fish,
2016-08-17,06:42,T,T,F,F,F,T,T,F,22:54,vegetarian,
2016-08-18,06:49,T,F,F,F,F,F,F,T,22:16,vegetarian,
2016-08-19,06:45,F,F,F,T,F,F,F,T,22:24,vegetarian,
2016-08-20,07:06,F,F,T,T,F,F,F,F,22:22,fish,
2016-08-21,07:23,F,F,F,F,F,T,F,T,21:52,fish,
2016-08-22,07:14,F,T,F,T,F,T,F,T,23:47,vegan,
2016-08-23,06:29,T,T,F,F,F,T,T,F,22:43,vegan,
2016-08-24,06:02,T,T,F,T,T,F,F,F,23:33,vegan,
2016-08-25,07:55,T,F,T,T,F,F,F,T,22:20,cow,
2016-08-26,06:32,F,T,T,T,F,T,F,T,22:56,pork,T
2016-08-27,06:34,T,T,F,T,F,T,F,F,22:17,pork,
2016-08-28,06:39,F,F,T,T,F,T,F,F,23:43,pork,
2016-08-29,05:46,F,T,F,F,F,F,F,T,22:45,vegan,
2016-08-30,06:41,F,F,F,T,T,T,F,T,22:16,vegan,
2016-08-31,06:41,T,T,F,T,F,T,T,F,21:21,vegetarian,
2016-09-01,07:25,F,F,F,F,F,F,F,T,23:17,fish,
2016-09-02,07:28,F,T,F,T,F,T,F,F,22:17,chicken,
2016-09-03,07:00,T,F,T,T,F,T,F,T,22:59,vegetarian,
2016-09-04,07:37,F,F,T,F,F,T,T,T,22:30,vegetarian,
2016-09-05,07:14,F,F,T,T,F,F,T,F,23:57,fish,
2016-09-06,06:59,T,F,F,T,F,T,F,T,23:33,vegetarian,
2016-09-07,07:06,T,T,F,F,F,F,F,F,23:27,cow,T
2016-09-08,06:52,T,F,T,F,F,T,F,T,22:23,cow,
2016-09-09,06:44,F,F,T,F,F,F,T,T,23:28,pork,
2016-09-10,06:49,F,T,T,F,F,F,F,F,00:43,vegetarian,
2016-09-11,06:15,F,T,F,T,F,F,T,F,22:10,vegan,
2016-09-12,07:11,F,T,F,F,F,F,F,F,23:10,vegan,
2016-09-13,06:20,F,T,F,T,F,T,F,T,21:21,vegan,
2016-09-14,07:34,T,F,T,T,F,T,F,F,00:24,vegan,
2016-09-15,06:50,F,F,T,F,F,F,F,F,22:36,chicken,
2016-09-16,07:02,T,T,T,T,F,T,F,T,23:47,chicken,
2016-09-17,07:20,F,F,T,F,F,T,T,T,21:17,chicken,
2016-09-18,07:26,T,F,F,F,F,T,T,T,00:48,fish,
2016-09-19,05:57,F,T,T,T,F,F,F,F,22:39,vegetarian,
2016-09-20,06:52,F,T,F,T,F,F,F,F,23:33,fish,T
2016-09-21,07:35,T,F,T,F,F,F,F,F,23:09,cow,
2016-09-22,05:52,T,F,F,T,F,T,F,F,22:45,fish,
2016-09-23,07:15,F,F,F,F,F,T,F,F,00:41,fish,
2016-09-24,05:30,T,F,T,F,F,T,F,F,21:21,chicken,
2016-09-25,06:19,F,T,F,F,F,F,F,T,23:18,pork,
2016-09-26,07:02,T,F,F,T,F,F,F,F,23:55,pork,
2016-09-27,05:54,F,F,T,F,F,F,F,F,22:58,vegan,
2016-09-28,06:21,T,T,T,F,F,T,F,T,22:53,vegan,
2016-09-29,06:01,F,F,F,F,F,T,F,T,22:51,pork,
2016-09-30,08:06,T,F,T,T,F,T,T,T,21:46,cow,
2016-10-01,07:07,F,F,F,F,F,T,T,F,23:02,cow,
2016-10-02,07:23,F,T,F,F,F,T,T,F,23:31,pork,
2016-10-03,06:51,F,T,F,F,F,T,F,F,23:04,chicken,
2016-10-04,06:46,F,F,F,T,F,F,T,F,22:44,chicken,
2016-10-05,05:55,T,T,T,F,F,T,F,T,22:31,vegetarian,
2016-10-06,06:48,T,F,F,T,F,T,T,F,22:43,cow,
2016-10-07,06:30,T,F,F,T,F,T,F,T,00:15,pork,T
2016-10-08,07:34,F,T,F,T,F,T,F,F,20:55,vegetarian,
2016-10-09,07:46,T,F,F,F,F,T,F,F,23:02,chicken,
2016-10-10,07:59,T,F,F,F,F,T,F,F,22:40,chicken,
2016-10-11,07:34,F,T,F,F,F,T,F,F,00:27,fish,
2016-10-12,06:36,F,T,F,T,F,F,T,T,23:03,vegan,
2016-10-13,06:15,F,F,F,F,F,T,F,T,00:29,cow,
2016-10-14,07:31,F,F,F,T,F,F,F,F,20:53,pork,
2016-10-15,07:14,T,F,T,F,F,T,F,T,23:28,chicken,
2016-10-16,05:49,F,F,F,F,F,F,F,T,23:17,chicken,
2016-10-17,07:14,F,T,F,F,F,F,F,F,00:23,fish,
2016-10-18,07:33,T,T,F,T,F,T,F,F,21:22,vegetarian,
2016-10-19,07:02,T,T,F,F,T,F,F,F,22:51,pork,
2016-10-20,06:53,T,F,T,T,F,T,F,T,23:04,chicken,T
2016-10-21,06:28,T,T,T,F,F,F,F,T,22:30,chicken,
2016-10-22,06:02,F,T,F,F,F,F,F,F,00:13,fish,
2016-10-23,07:32,T,F,F,F,F,T,F,T,22:40,fish,
2016-10-24,06:48,F,F,F,T,F,F,T,F,01:02,fish,
2016-10-25,06:51,F,T,F,T,F,F,T,F,00:03,chicken,
2016-10-26,08:09,F,F,T,T,F,F,T,T,23:57,vegan,
2016-10-27,07:27,T,F,T,F,F,F,F,F,23:34,vegan,
2016-10-28,07:15,T,F,F,F,F,F,F,F,21:56,pork,
2016-10-29,07:06,F,T,F,T,F,T,F,F,22:34,chicken,
2016-10-30,08:01,F,T,T,T,F,T,F,F,23:34,vegetarian,
2016-10-31,08:09,T,T,F,T,F,T,F,T,23:41,vegetarian,T
2016-11-01,07:37,T,F,T,F,F,T,F,F,00:18,fish,
2016-11-02,07:23,T,T,T,F,F,T,F,T,22:32,fish,
2016-11-03,05:36,T,T,F,T,F,T,F,T,22:08,chicken,
2016-11-04,07:05,T,F,T,F,F,F,F,F,23:52,cow,
2016-11-05,06:55,T,F,T,T,F,T,F,F,22:11,cow,
2016-11-06,07:04,T,T,T,F,F,T,F,T,23:52,cow,
2016-11-07,07:38,F,F,F,F,F,F,F,F,00:12,fish,
2016-11-08,05:10,F,F,F,F,F,T,F,F,23:27,fish,
2016-11-09,06:37,F,F,F,T,F,T,F,T,22:39,fish,
2016-11-10,07:11,F,F,T,F,F,F,F,F,23:02,chicken,
2016-11-11,06:41,T,T,F,T,F,T,F,F,23:36,pork,T
2016-11-12,06:03,F,T,F,T,F,F,F,T,23:01,pork,
2016-11-13,07:35,F,F,F,T,F,T,F,F,01:12,pork,
2016-11-14,07:11,T,F,T,F,F,T,F,F,22:01,vegan,
2016-11-15,06:21,T,F,T,T,F,F,T,T,22:00,cow,
2016-11-16,07:13,F,F,F,T,F,F,F,F,22:01,pork,
2016-11-17,07:33,F,F,F,T,F,T,F,F,22:25,cow,
2016-11-18,07:00,F,F,F,F,F,T,F,F,20:49,vegan,
2016-11-19,07:32,F,F,F,F,F,F,F,F,22:22,vegan,
2016-11-20,07:03,F,T,F,F,F,F,T,T,22:21,vegetarian,
2016-11-21,06:44,F,F,F,F,F,F,F,F,23:05,vegetarian,T
2016-11-22,06:14,F,F,T,T,F,T,T,F,23:25,fish,
2016-11-23,06:57,F,F,F,T,F,T,F,F,21:46,chicken,
2016-11-24,07:08,T,T,F,F,F,T,F,F,23:54,chicken,
2016-11-25,07:35,T,F,T,F,F,T,F,F,00:48,pork,
2016-11-26,06:55,F,F,T,T,F,F,T,F,22:48,cow,
2016-11-27,07:18,T,F,T,F,F,T,F,T,00:34,fish,
2016-11-28,06:21,F,F,T,F,F,F,F,F,23:12,vegetarian,
2016-11-29,06:29,F,F,F,F,F,T,F,T,00:59,fish,
2016-11-30,06:56,F,F,F,T,F,T,F,F,00:07,vegetarian,
2016-12-01,06:18,T,T,F,F,F,T,F,T,21:26,vegetarian,
2016-12-02,07:33,F,F,T,T,F,T,F,F,23:01,pork,
2016-12-03,07:19,T,F,F,F,F,F,F,F,00:03,pork,
2016-12-04,07:11,T,T,F,F,F,F,T,T,23:02,fish,
2016-12-05,07:14,T,F,T,F,F,T,F,F,22:58,chicken,
2016-12-06,08:21,F,T,F,F,F,T,F,T,00:16,fish,
2016-12-07,06:41,T,T,F,F,F,T,T,F,22:17,fish,
2016-12-08,05:32,T,F,T,T,F,T,F,F,23:01,vegetarian,
2016-12-09,07:08,F,F,F,F,F,T,F,T,23:19,fish,T
2016-12-10,06:58,F,F,F,T,F,F,T,T,22:40,cow,
2016-12-11,06:39,T,F,F,T,F,F,T,T,22:59,pork,
2016-12-12,06:21,F,T,T,T,F,F,F,T,23:47,pork,
2016-12-13,06:42,F,F,T,T,F,F,F,F,23:26,cow,
2016-12-14,07:07,T,T,T,F,F,F,T,F,22:11,pork,
2016-12-15,06:40,F,F,F,F,F,F,F,F,21:54,cow,
2016-12-16,08:36,F,T,F,F,F,T,F,F,22:13,vegetarian,
2016-12-17,06:22,F,F,T,F,F,F,F,F,23:00,vegan,
2016-12-18,06:28,T,F,T,F,F,T,F,T,22:50,cow,
2016-12-19,05:28,T,F,F,T,F,F,F,F,22:10,cow,
2016-12-20,07:10,T,F,F,F,F,F,F,F,22:24,chicken,
2016-12-21,05:39,F,T,F,T,F,T,F,T,21:29,chicken,
2016-12-22,06:38,T,F,F,F,F,T,F,T,23:25,vegetarian,
2016-12-23,06:49,F,F,T,T,F,T,T,F,22:58,vegan,
2016-12-24,06:32,T,T,F,T,F,F,T,T,21:44,chicken,
2016-12-25,08:10,F,F,T,F,F,F,F,T,23:02,chicken,T
2016-12-26,07:40,T,F,F,T,F,T,T,T,00:21,pork,
2016-12-27,07:53,T,T,F,F,F,T,F,T,22:16,pork,
2016-12-28,06:25,F,F,F,T,F,T,F,T,00:19,pork,
2016-12-29,07:45,T,F,T,T,F,T,F,T,22:41,pork,
2016-12-30,07:20,T,F,F,F,F,F,F,T,23:12,pork,
2016-12-31,07:31,F,F,F,F,F,T,F,F,23:06,chicken,
2017-01-01,07:41,F,T,F,F,F,T,T,F,00:24,chicken,
2017-01-02,06:24,T,F,F,T,F,T,T,T,23:10,chicken,
2017-01-03,06:43,F,F,F,T,F,T,F,F,21:51,pork,
2017-01-04,07:35,F,F,F,T,F,T,F,F,21:41,chicken,
2017-01-05,05:14,F,F,F,T,F,T,F,F,21:28,fish,T
2017-01-06,08:01,F,F,T,T,F,T,F,T,21:17,chicken,
2017-01-07,07:22,T,F,T,T,F,T,F,F,23:03,pork,
2017-01-08,06:58,T,F,F,F,F,T,F,T,22:02,pork,
2017-01-09,07:09,T,F,T,F,F,T,F,T,22:55,pork,
2017-01-10,06:19,F,T,F,F,F,T,F,T,22:18,chicken,
2017-01-11,06:46,F,F,F,F,F,F,F,F,22:14,fish,
2017-01-12,07:44,F,T,T,F,F,F,T,F,22:31,fish,
2017-01-13,07:52,F,F,T,F,F,T,T,F,23:42,fish,
2017-01-14,08:48,F,T,F,T,F,F,T,F,23:56,pork,
2017-01-15,06:57,T,T,F,F,F,F,T,T,23:22,pork,T
2017-01-16,06:34,F,F,T,T,F,T,T,T,22:01,vegetarian,
2017-01-17,06:39,F,F,F,T,F,T,F,F,23:39,fish,
2017-01-18,06:19,F,F,F,T,F,T,F,F,23:41,fish,
2017-01-19,06:57,T,F,F,F,F,F,F,F,23:16,vegetarian,
2017-01-20,07:15,F,F,F,F,F,T,F,F,22:24,vegetarian,
2017-01-21,06:59,F,T,T,F,F,F,F,T,23:43,vegan,
2017-01-22,07:44,T,F,F,T,F,T,T,F,23:25,vegan,
2017-01-23,06:51,F,F,T,F,F,T,F,F,19:53,fish,
2017-01-24,06:46,F,F,F,T,F,T,F,T,23:39,vegan,
2017-01-25,06:37,T,T,F,F,F,F,T,T,21:05,fish,
2017-01-26,05:55,F,T,F,F,F,T,F,F,23:40,vegetarian,
2017-01-27,05:57,T,T,F,F,F,T,F,T,22:51,cow,T
2017-01-28,06:13,F,F,T,F,F,T,F,T,00:12,pork,
2017-01-29,07:52,F,F,T,T,F,F,F,F,22:54,pork,
2017-01-30,07:36,T,F,F,T,F,T,F,T,22:07,pork,
2017-01-31,07:55,F,F,F,F,F,T,F,F,22:51,cow,
2017-02-01,06:07,T,T,T,T,F,F,F,T,00:04,vegan,
2017-02-02,05:41,F,T,F,F,F,F,T,T,23:02,cow,
2017-02-03,06:34,F,F,T,F,F,F,F,T,22:53,vegetarian,
2017-02-04,07:07,F,F,F,T,F,T,F,T,23:45,vegan,
2017-02-05,07:20,T,F,F,F,F,T,F,F,23:13,pork,
2017-02-06,07:42,T,F,F,T,F,T,F,F,23:00,pork,
2017-02-07,07:11,F,F,F,F,F,T,F,T,00:22,vegan,
2017-02-08,08:10,T,T,F,F,F,F,F,F,00:33,vegan,
2017-02-09,06:51,F,F,F,T,F,F,F,F,23:37,vegan,
2017-02-10,06:23,T,T,T,T,F,T,F,F,22:43,vegan,T
2017-02-11,05:53,F,T,F,T,F,F,F,F,00:30,cow,
2017-02-12,06:24,F,T,F,T,F,T,T,T,00:11,chicken,
2017-02-13,07:10,T,F,F,F,F,T,F,T,23:43,chicken,
2017-02-14,06:24,T,F,T,F,F,F,F,F,21:47,cow,
2017-02-15,07:37,F,F,F,F,T,F,F,F,23:08,chicken,
2017-02-16,07:56,T,T,T,F,F,T,F,F,22:15,chicken,
2017-02-17,05:25,T,T,F,F,F,F,F,F,22:50,pork,
2017-02-18,07:35,T,F,F,T,F,F,F,T,23:14,chicken,
2017-02-19,05:30,F,F,F,T,F,T,F,F,23:06,vegetarian,
2017-02-20,07:16,T,T,T,T,F,T,F,T,22:31,vegetarian,
2017-02-21,07:49,F,T,T,T,F,T,F,T,00:16,cow,
2017-02-22,07:03,F,T,F,T,F,T,F,T,21:18,cow,
2017-02-23,06:09,F,T,F,F,F,T,F,F,23:44,fish,T
2017-02-24,06:37,F,T,F,T,F,T,F,T,21:09,cow,
2017-02-25,06:50,F,T,F,F,F,F,T,F,23:23,pork,
2017-02-26,06:53,F,F,T,F,F,F,F,T,22:07,cow,
2017-02-27,06:52,F,F,F,F,F,F,F,T,23:53,vegetarian,
2017-02-28,06:56,T,F,T,F,F,F,F,F,23:05,vegetarian,
2017-03-01,07:09,T,F,T,T,F,T,F,T,23:15,vegetarian,
2017-03-02,06:12,F,T,F,T,F,F,F,F,21:59,fish,
2017-03-03,06:50,F,T,F,F,F,T,F,T,22:21,pork,
2017-03-04,08:01,F,F,T,T,F,T,T,T,23:12,chicken,
2017-03-05,06:45,F,T,F,F,F,F,F,F,23:35,vegetarian,
2017-03-06,06:42,T,T,T,F,F,F,F,F,01:56,vegetarian,
2017-03-07,07:43,F,T,T,F,F,T,F,F,23:13,vegan,
2017-03-08,05:18,F,T,F,F,F,T,F,F,23:59,pork,
2017-03-09,07:47,F,F,T,F,F,F,F,F,21:27,pork,
2017-03-10,06:35,F,T,T,F,F,T,F,F,21:40,chicken,T
2017-03-11,07:07,F,F,F,F,F,F,T,F,22:39,vegetarian,
2017-03-12,07:04,T,T,T,F,F,T,T,T,21:48,vegetarian,
2017-03-13,07:38,F,F,F,F,F,T,F,T,00:29,fish,
2017-03-14,06:49,F,F,F,T,F,T,F,F,22:35,fish,
2017-03-15,06:33,F,F,T,T,F,F,F,T,00:23,chicken,
2017-03-16,07:52,T,F,F,F,F,T,F,F,00:29,chicken,
2017-03-17,05:25,T,T,T,F,F,T,F,T,23:03,vegan,
2017-03-18,07:01,F,F,F,T,F,T,F,T,23:30,chicken,
2017-03-19,06:06,T,F,T,T,F,T,F,T,22:57,chicken,
2017-03-20,06:30,T,F,F,T,F,F,T,T,23:32,pork,
2017-03-21,08:20,F,F,F,F,F,T,F,T,23:29,vegetarian,
2017-03-22,06:58,T,F,F,F,F,T,F,T,22:53,vegan,
2017-03-23,07:08,F,T,F,F,F,F,F,T,23:30,fish,
2017-03-24,05:49,F,F,F,F,F,F,F,F,00:43,chicken,
2017-03-25,06:31,F,F,F,T,F,T,F,T,23:43,fish,
2017-03-26,07:08,T,F,F,T,F,F,F,T,23:20,cow,T
2017-03-27,07:14,T,T,T,T,F,T,F,T,23:07,cow,
2017-03-28,07:25,F,F,T,T,F,T,F,F,21:59,vegan,
2017-03-29,07:00,F,F,F,F,F,F,F,T,21:58,cow,
2017-03-30,07:21,F,T,F,T,T,T,F,F,23:19,fish,
2017-03-31,07:18,T,T,T,T,F,F,F,T,21:38,fish,
2017-04-01,05:47,T,F,T,F,F,F,F,F,22:14,chicken,
2017-04-02,07:01,F,F,F,F,F,T,F,T,00:17,fish,
2017-04-03,07:31,T,F,F,T,F,T,F,F,00:55,vegan,
2017-04-04,07:24,F,F,F,T,F,F,F,F,21:20,fish,
2017-04-05,06:45,T,T,F,F,F,T,F,F,00:38,vegetarian,
2017-04-06,06:28,T,F,F,F,F,T,F,T,22:47,vegan,
2017-04-07,06:15,T,F,F,F,F,F,F,F,22:59,chicken,T
2017-04-08,06:55,F,F,F,T,F,F,F,T,22:53,vegetarian,
2017-04-09,07:45,T,T,T,F,F,F,F,F,00:05,chicken,
2017-04-10,05:42,F,F,F,T,F,T,F,F,21:24,cow,
2017-04-11,06:34,T,F,T,F,F,T,F,T,23:27,pork,
2017-04-12,06:14,F,T,F,F,F,F,F,T,22:03,pork,
2017-04-13,07:31,T,F,F,F,F,F,F,T,23:34,cow,
2017-04-14,06:38,F,F,T,F,T,T,F,T,00:33,cow,
2017-04-15,06:41,F,F,F,F,F,F,F,F,23:00,chicken,
2017-04-16,06:51,F,T,T,T,F,F,F,F,23:22,vegan,
2017-04-17,07:18,T,F,F,F,F,T,F,T,23:25,vegan,T
2017-04-18,06:44,T,F,F,F,F,T,F,F,22:12,vegan,
2017-04-19,04:58,F,F,F,T,F,T,F,F,00:31,vegan,
2017-04-20,07:22,F,T,F,T,F,T,F,F,00:42,vegan,
2017-04-21,07:18,F,T,F,F,T,F,F,F,23:42,pork,
2017-04-22,06:51,F,T,F,F,F,F,F,F,23:04,pork,
2017-04-23,06:17,F,T,F,T,F,T,F,F,22:32,vegetarian,
2017-04-24,07:14,F,T,F,F,F,F,T,T,22:22,vegetarian,
2017-04-25,07:15,T,F,T,F,F,F,T,T,00:43,fish,
2017-04-26,06:41,T,T,F,T,F,T,F,T,00:25,pork,
2017-04-27,06:51,T,T,F,F,F,F,F,T,22:56,pork,
2017-04-28,06:23,T,F,F,T,F,T,T,T,21:25,cow,
2017-04-29,06:53,T,T,T,F,T,T,F,F,20:10,cow,
2017-04-30,05:58,T,T,T,F,F,F,T,T,21:55,vegan,
2017-05-01,07:17,T,F,F,T,F,T,F,F,22:52,pork,T
2017-05-02,06:22,T,T,T,F,F,T,F,F,00:24,vegetarian,
2017-05-03,07:10,F,T,F,F,F,F,T,F,22:21,pork,
2017-05-04,06:04,F,F,F,T,F,F,F,F,23:30,pork,
2017-05-05,06:36,F,F,F,T,F,T,F,T,00:18,chicken,
2017-05-06,06:56,F,F,F,F,F,F,F,F,23:08,fish,
2017-05-07,05:54,F,T,T,F,F,F,F,F,22:51,fish,
2017-05-08,07:05,T,T,F,T,F,T,F,T,21:41,fish,
2017-05-09,06:45,F,F,T,F,F,F,F,F,21:48,vegetarian,
2017-05-10,05:50,F,T,T,F,F,F,F,T,23:25,cow,
2017-05-11,06:08,F,F,F,F,F,T,T,T,22:48,vegetarian,
2017-05-12,07:24,F,F,T,T,F,T,F,T,23:07,chicken,
2017-05-13,07:36,F,T,F,T,T,F,F,F,22:57,fish,T
2017-05-14,06:55,T,F,T,F,F,T,F,T,23:40,vegan,
2017-05-15,07:16,T,T,F,F,F,T,F,F,22:13,fish,
2017-05-16,07:09,F,F,T,F,F,F,F,F,22:40,fish,
2017-05-17,07:13,F,F,F,T,F,F,F,F,00:54,fish,
2017-05-18,07:51,F,F,F,T,F,F,F,T,22:12,fish,
2017-05-19,06:00,T,F,F,T,T,T,F,F,22:43,chicken,
2017-05-20,07:27,F,F,F,F,F,T,F,T,22:25,chicken,
2017-05-21,06:45,F,T,F,T,F,T,F,F,23:27,chicken,
2017-05-22,06:51,T,F,T,F,F,F,T,T,00:01,vegan,
2017-05-23,06:48,F,F,F,F,F,F,T,F,22:30,fish,
2017-05-24,06:45,F,T,F,F,F,T,F,T,22:34,fish,
2017-05-25,06:11,F,T,T,F,F,F,F,T,22:43,chicken,
2017-05-26,07:07,F,F,T,T,F,T,F,F,23:32,chicken,
2017-05-27,08:07,T,T,T,F,F,T,F,T,22:16,fish,
2017-05-28,06:58,F,F,F,F,F,F,T,F,22:37,vegetarian,
2017-05-29,07:00,T,F,T,T,F,T,T,T,20:38,vegetarian,T
2017-05-30,06:33,T,T,F,F,F,T,T,T,21:37,cow,
2017-05-31,06:55,T,F,F,T,T,T,F,F,22:53,vegetarian,
2017-06-01,07:19,F,F,F,F,F,F,T,T,23:54,vegetarian,
2017-06-02,06:45,F,F,T,F,F,T,F,F,23:18,vegetarian,
2017-06-03,06:42,F,F,F,T,F,F,F,T,21:54,vegetarian,
2017-06-04,07:16,F,F,F,F,F,F,T,F,21:36,fish,
2017-06-05,06:23,T,F,F,F,F,F,F,T,23:10,chicken,
2017-06-06,07:10,F,T,T,F,T,T,F,F,21:21,chicken,
2017-06-07,07:33,T,F,F,F,F,T,T,T,00:04,chicken,
2017-06-08,07:54,T,F,F,F,F,T,T,F,23:04,chicken,
2017-06-09,06:56,T,T,T,F,F,T,T,T,21:24,cow,
2017-06-10,07:55,F,F,F,F,T,F,F,T,22:02,fish,
2017-06-11,07:41,T,F,T,F,F,T,F,T,22:17,fish,T
2017-06-12,06:20,T,T,F,F,F,F,F,F,22:14,chicken,
2017-06-13,06:11,T,F,F,F,F,T,F,F,21:31,vegetarian,
2017-06-14,06:48,F,T,F,F,F,T,F,F,22:08,cow,
2017-06-15,07:41,T,F,T,T,F,F,F,F,22:19,cow,
2017-06-16,06:57,F,F,T,F,F,T,F,T,22:17,fish,
2017-06-17,06:36,F,T,T,T,F,T,F,F,00:08,cow,
2017-06-18,08:02,T,F,F,T,F,T,F,F,23:06,fish,
2017-06-19,07:11,T,F,F,T,F,F,T,F,22:00,chicken,T
2017-06-20,05:27,F,F,T,T,F,T,F,F,22:40,fish,
2017-06-21,07:13,F,F,F,F,F,F,F,T,22:07,chicken,
2017-06-22,07:21,T,F,F,T,F,T,F,F,22:42,fish,
2017-06-23,07:09,F,T,T,F,F,T,F,F,23:53,cow,
2017-06-24,07:18,F,F,F,F,F,F,F,F,23:15,cow,
2017-06-25,06:57,T,F,F,T,F,T,F,F,01:17,fish,
2017-06-26,06:07,T,T,F,F,F,F,F,F,23:23,chicken,
2017-06-27,06:45,T,F,F,F,F,F,F,T,22:05,chicken,
2017-06-28,06:22,T,F,T,T,F,T,F,F,23:49,fish,
2017-06-29,06:23,F,F,F,T,F,T,T,F,00:05,vegetarian,
2017-06-30,06:09,F,T,F,F,F,F,F,F,00:06,vegetarian,
2017-07-01,07:18,T,F,F,F,F,T,T,T,21:54,vegan,
2017-07-02,07:04,F,T,T,F,F,F,T,F,22:51,pork,
2017-07-03,06:42,F,F,T,T,F,F,F,F,00:08,chicken,
2017-07-04,06:34,T,T,F,F,F,T,F,F,21:19,fish,T
2017-07-05,06:59,F,F,F,T,F,F,T,T,22:30,chicken,
2017-07-06,07:43,F,T,F,F,F,F,T,T,21:34,fish,
2017-07-07,05:40,F,T,F,T,F,F,F,F,22:04,chicken,
2017-07-08,07:15,F,F,F,F,F,T,F,T,21:59,chicken,
2017-07-09,06:38,F,T,F,F,F,T,F,T,00:15,chicken,
2017-07-10,05:45,F,T,T,T,F,F,F,F,22:46,vegetarian,
2017-07-11,05:42,T,F,T,F,F,T,F,T,22:08,vegan,
2017-07-12,06:23,F,T,T,F,F,F,F,F,21:58,cow,
2017-07-13,07:09,T,T,F,F,F,T,F,F,23:09,vegan,
2017-07-14,07:16,F,F,T,T,F,T,F,F,22:59,chicken,
2017-07-15,06:22,T,F,F,F,F,T,F,F,00:21,chicken,
2017-07-16,07:41,F,T,F,F,F,T,F,F,23:30,chicken,
2017-07-17,07:57,F,T,F,T,F,F,F,F,21:34,chicken,
2017-07-18,07:16,T,F,F,F,F,T,F,T,22:22,chicken,T
2017-07-19,06:36,T,T,F,F,F,F,F,F,00:04,chicken,
2017-07-20,07:45,F,F,F,T,T,F,F,T,22:23,chicken,
2017-07-21,07:30,T,F,F,F,F,F,F,T,00:44,fish,
2017-07-22,07:35,T,T,T,F,F,T,F,T,21:54,chicken,
2017-07-23,06:34,F,T,F,T,F,T,F,T,23:34,chicken,
2017-07-24,05:07,F,T,F,F,F,T,F,F,22:08,pork,
2017-07-25,08:25,T,F,F,T,F,F,F,T,22:29,cow,
2017-07-26,05:56,F,T,T,F,F,T,F,T,00:06,pork,
2017-07-27,06:59,F,F,T,F,F,T,F,T,22:52,pork,
2017-07-28,08:35,F,T,T,T,F,F,F,T,23:49,pork,
2017-07-29,07:13,T,F,F,T,F,T,F,F,23:28,pork,
2017-07-30,07:38,F,T,F,T,F,T,F,F,23:45,chicken,T
2017-07-31,06:00,F,F,T,T,F,T,F,F,22:07,chicken,
2017-08-01,05:49,T,F,F,F,F,F,F,F,22:47,chicken,
2017-08-02,06:39,T,F,F,T,T,F,F,F,23:25,pork,
2017-08-03,07:44,F,T,F,F,F,T,F,T,22:09,chicken,
2017-08-04,06:46,F,T,T,F,T,F,F,F,00:38,fish,
2017-08-05,06:28,F,T,F,F,F,F,F,T,22:13,fish,
2017-08-06,07:08,T,T,T,F,F,T,F,F,22:42,fish,
2017-08-07,07:43,T,T,F,T,F,T,F,F,22:00,chicken,
2017-08-08,06:02,T,T,T,F,F,F,F,F,20:51,chicken,
2017-08-09,06:12,T,T,F,T,F,T,F,T,00:48,vegetarian,
2017-08-10,06:28,F,T,F,F,F,T,F,F,22:48,fish,
2017-08-11,07:44,F,F,T,T,F,F,F,F,22:33,vegetarian,
2017-08-12,07:09,F,T,F,F,F,F,F,F,22:48,cow,
2017-08-13,08:25,T,F,T,T,F,T,F,F,00:25,pork,T
2017-08-14,07:37,F,F,F,F,F,F,F,T,22:02,pork,
2017-08-15,06:59,F,F,T,F,F,T,T,T,23:41,pork,
2017-08-16,07:51,F,F,F,F,F,T,T,T,22:35,pork,
2017-08-17,07:08,F,T,F,T,F,T,F,F,22:24,chicken,
2017-08-18,06:32,F,T,T,T,F,T,T,F,23:34,fish,
2017-08-19,07:27,T,T,F,T,T,F,F,F,23:59,chicken,
2017-08-20,06:32,F,T,T,F,F,T,F,F,22:29,fish,
2017-08-21,06:48,F,T,F,F,F,T,F,F,22:14,fish,
2017-08-22,07:53,F,F,F,T,F,F,F,F,21:50,fish,
2017-08-23,06:56,T,T,F,F,F,F,F,T,00:06,cow,
2017-08-24,06:28,F,T,F,F,F,T,T,F,22:25,pork,T
2017-08-25,06:41,T,T,F,F,F,F,F,T,21:09,chicken,
2017-08-26,07:41,T,T,F,F,F,T,F,T,00:25,vegan,
2017-08-27,06:38,F,T,F,F,F,T,F,T,21:38,pork,
2017-08-28,06:45,F,F,T,F,F,F,F,F,23:47,pork,
2017-08-29,06:40,F,F,F,F,F,T,F,F,23:11,pork,
2017-08-30,07:07,F,T,T,F,T,F,T,F,23:17,vegetarian,
2017-08-31,06:45,F,F,T,F,T,F,F,F,22:25,fish,
2017-09-01,05:56,T,T,F,T,F,F,F,T,23:22,vegetarian,
2017-09-02,06:25,F,F,T,T,F,T,F,T,21:20,vegan,
2017-09-03,06:23,F,F,T,T,F,T,F,T,23:35,chicken,
2017-09-04,07:50,T,F,T,T,F,T,F,T,00:33,pork,
2017-09-05,07:33,T,F,F,F,F,T,T,F,23:53,pork,T
2017-09-06,07:23,F,F,F,T,T,T,F,T,20:59,fish,
2017-09-07,06:40,F,F,F,F,F,T,F,T,22:01,chicken,
2017-09-08,06:27,F,F,T,F,F,T,F,F,22:49,vegetarian,
2017-09-09,06:40,T,F,F,F,F,F,F,T,23:29,vegetarian,
2017-09-10,06:18,T,F,T,F,F,T,F,T,22:54,fish,
2017-09-11,08:40,F,F,F,T,F,T,F,F,22:30,chicken,
2017-09-12,05:30,F,F,F,F,F,F,F,T,23:36,chicken,
2017-09-13,07:23,F,F,T,F,F,T,T,F,00:10,vegan,
2017-09-14,06:09,T,F,F,T,F,T,T,F,22:46,cow,
2017-09-15,06:56,F,T,F,T,F,F,F,F,23:44,pork,
2017-09-16,06:20,F,T,T,T,F,F,F,T,20:25,fish,
2017-09-17,06:13,F,F,T,T,F,T,F,T,22:04,fish,
2017-09-18,06:14,F,F,T,T,F,T,F,T,22:41,fish,
2017-09-19,08:10,F,T,F,F,F,T,F,T,22:31,chicken,T
2017-09-20,06:55,T,F,F,F,F,T,T,F,23:20,fish,
2017-09-21,06:29,T,F,F,F,F,T,T,F,00:01,fish,
2017-09-22,07:22,T,F,T,F,F,T,F,T,23:30,vegetarian,
2017-09-23,07:00,T,F,F,F,F,T,F,T,22:23,vegan,
2017-09-24,07:29,F,T,T,F,F,T,T,F,21:29,vegetarian,
2017-09-25,05:47,T,F,T,T,T,F,T,F,23:33,vegetarian,
2017-09-26,07:12,F,T,F,F,F,T,F,T,21:10,pork,
2017-09-27,07:31,F,F,T,T,F,T,F,F,23:39,pork,
2017-09-28,05:54,T,F,T,T,F,T,F,F,22:49,cow,
2017-09-29,07:18,F,T,F,F,F,T,F,F,21:49,pork,
2017-09-30,08:08,F,F,T,F,F,T,F,T,23:17,cow,
2017-10-01,06:59,F,T,F,F,F,T,F,T,23:00,cow,
2017-10-02,07:33,F,F,F,F,T,T,F,F,22:58,vegan,
2017-10-03,07:27,F,F,F,F,F,T,F,F,22:55,chicken,
2017-10-04,06:32,F,F,F,T,F,T,F,T,23:25,fish,
2017-10-05,07:02,F,F,F,F,F,F,F,F,23:55,cow,
2017-10-06,05:57,F,F,F,F,F,T,F,T,23:30,vegetarian,
2017-10-07,06:42,F,T,T,F,F,F,F,T,00:01,vegetarian,T
2017-10-08,07:11,F,F,F,T,F,T,F,F,22:57,vegetarian,
2017-10-09,07:29,F,F,T,T,F,T,F,F,00:37,vegan,
2017-10-10,07:01,T,F,T,T,F,T,F,F,23:34,vegan,
2017-10-11,07:29,T,F,F,T,F,T,F,T,22:27,fish,
2017-10-12,06:16,F,F,F,T,F,T,F,F,21:54,vegan,
2017-10-13,06:56,T,F,T,T,F,T,F,T,23:12,vegan,
2017-10-14,07:01,F,T,T,T,F,T,F,F,21:42,vegetarian,
2017-10-15,08:14,T,T,F,F,F,T,F,T,22:02,fish,
2017-10-16,06:51,T,F,F,T,F,F,T,T,23:14,fish,
2017-10-17,06:40,F,F,T,F,F,T,F,T,22:24,pork,
2017-10-18,07:01,T,T,F,F,F,F,F,F,22:04,fish,
2017-10-19,06:23,T,F,F,T,F,T,F,F,22:58,vegetarian,
2017-10-20,07:08,F,T,F,F,F,T,F,F,23:04,vegan,
2017-10-21,06:45,F,T,F,F,F,F,F,T,22:48,pork,
2017-10-22,05:48,F,F,F,T,F,T,F,F,22:37,pork,T
2017-10-23,06:58,T,T,T,T,F,T,F,F,23:51,cow,
2017-10-24,06:47,T,F,F,T,F,T,F,F,23:21,cow,
2017-10-25,05:55,F,F,F,T,F,F,F,F,22:47,vegan,
2017-10-26,06:57,F,F,F,F,T,F,F,T,01:28,fish,
2017-10-27,08:00,F,F,T,F,T,F,F,T,23:12,vegetarian,
2017-10-28,07:21,F,F,T,T,F,F,F,T,00:08,vegan,
2017-10-29,07:24,F,T,F,T,F,T,F,T,22:26,cow,
2017-10-30,06:06,T,F,F,T,F,T,T,F,21:38,fish,
2017-10-31,07:19,T,T,F,F,T,F,F,F,22:12,fish,
2017-11-01,07:06,T,T,F,T,F,T,F,F,22:44,fish,
2017-11-02,07:21,T,T,T,F,F,T,F,T,22:30,cow,
2017-11-03,07:17,F,F,F,T,F,F,F,T,00:20,pork,
2017-11-04,06:06,F,T,F,F,F,F,T,F,22:53,pork,T
2017-11-05,06:58,F,T,T,T,F,F,F,T,23:28,chicken,
2017-11-06,06:30,F,T,F,T,F,T,F,F,22:57,chicken,
2017-11-07,06:58,T,F,F,T,F,T,F,T,22:34,chicken,
2017-11-08,06:24,T,F,F,F,F,F,F,F,23:02,vegetarian,
2017-11-09,07:52,T,F,T,F,F,F,T,T,00:43,chicken,
2017-11-10,06:26,F,F,F,F,F,F,F,F,22:14,fish,
2017-11-11,06:24,F,F,F,F,F,T,F,F,23:46,fish,
2017-11-12,07:03,T,T,F,F,F,T,F,T,21:58,pork,
2017-11-13,06:17,F,F,T,F,F,F,F,F,22:32,pork,
2017-11-14,06:43,F,F,T,F,F,T,F,F,23:00,chicken,
2017-11-15,06:27,F,F,T,F,F,F,F,F,23:20,pork,
2017-11-16,07:56,F,F,T,T,F,F,T,T,00:29,vegan,T
2017-11-17,07:31,T,F,T,T,F,F,F,T,22:57,chicken,
2017-11-18,06:58,T,T,T,F,F,T,F,F,22:09,pork,
2017-11-19,06:44,F,F,F,F,F,F,F,F,23:39,pork,
2017-11-20,07:38,F,F,F,F,F,T,F,F,22:38,chicken,
2017-11-21,07:16,F,T,T,T,F,T,F,T,23:14,chicken,
2017-11-22,07:20,F,F,T,F,F,T,T,F,22:53,pork,
2017-11-23,06:59,F,F,T,F,F,T,F,T,21:03,chicken,
2017-11-24,05:52,F,T,F,F,F,T,F,T,23:30,chicken,
2017-11-25,06:56,F,F,T,F,F,T,F,F,23:35,chicken,
2017-11-26,06:39,F,T,F,F,F,F,F,T,23:56,pork,
2017-11-27,07:26,T,T,T,F,F,T,F,T,00:48,vegan,
2017-11-28,07:40,F,F,T,T,F,F,T,F,21:48,cow,
2017-11-29,06:34,F,F,T,T,F,T,T,F,23:31,vegetarian,
2017-11-30,07:19,T,F,F,T,F,T,F,F,23:25,vegetarian,T
2017-12-01,08:09,F,F,T,T,F,F,F,F,22:35,fish,
2017-12-02,06:33,F,F,F,F,F,T,F,F,23:24,vegan,
2017-12-03,08:07,F,T,F,F,F,F,F,T,23:30,vegetarian,
2017-12-04,06:26,T,F,F,T,F,T,F,F,21:47,vegan,
2017-12-05,07:01,F,T,T,T,F,T,F,F,23:15,vegan,
2017-12-06,07:00,T,F,F,T,F,T,F,F,22:05,cow,
2017-12-07,07:00,F,T,F,F,F,F,F,F,22:21,chicken,
2017-12-08,06:26,F,F,T,F,F,T,F,F,21:14,cow,
2017-12-09,06:36,F,T,F,F,F,F,T,F,22:32,chicken,
2017-12-10,06:33,T,T,F,F,F,F,F,F,22:48,chicken,
2017-12-11,07:13,F,T,T,F,F,F,F,F,23:33,pork,
2017-12-12,07:13,F,F,T,T,F,F,F,T,23:00,cow,
2017-12-13,08:29,F,F,F,F,F,F,F,T,21:27,vegan,
2017-12-14,07:55,F,F,F,T,F,T,F,T,23:52,vegan,
2017-12-15,06:40,F,F,T,F,F,F,F,F,22:53,vegan,
2017-12-16,07:13,F,F,F,T,F,F,T,T,23:29,cow,
2017-12-17,07:40,F,T,T,F,F,F,T,T,23:58,fish,
2017-12-18,07:01,T,F,T,F,F,T,F,F,00:25,fish,
2017-12-19,06:57,T,F,F,F,F,T,F,T,00:58,fish,
2017-12-20,07:02,F,F,T,F,F,T,F,T,22:56,fish,T
2017-12-21,07:35,F,F,T,F,F,T,F,T,23:19,vegetarian,
2017-12-22,06:26,F,T,T,F,F,T,F,F,21:55,vegetarian,
2017-12-23,06:47,T,T,F,F,F,T,F,F,00:04,fish,
2017-12-24,07:19,T,F,F,F,F,T,F,F,21:49,chicken,
2017-12-25,07:12,F,F,F,F,F,F,F,F,21:12,pork,
2017-12-26,07:10,T,F,T,F,F,T,F,F,23:50,chicken,
2017-12-27,06:45,F,F,F,T,F,T,F,F,22:29,fish,
2017-12-28,07:39,T,F,T,T,F,T,F,F,23:47,fish,
2017-12-29,08:25,F,T,T,T,T,F,F,T,23:24,fish,
2017-12-30,07:16,F,F,F,T,F,F,F,F,21:22,fish,
2017-12-31,06:52,T,F,T,T,F,T,F,T,20:17,fish,T
2018-01-01,07:30,T,F,T,T,F,T,F,F,21:54,chicken,
2018-01-02,06:38,T,F,F,F,F,F,F,T,23:01,cow,
2018-01-03,06:30,F,T,T,F,F,T,F,F,21:47,vegan,
2018-01-04,07:01,F,T,T,T,F,T,F,T,22:21,vegan,
2018-01-05,05:17,F,T,F,T,F,F,F,T,21:32,vegan,
2018-01-06,06:14,F,F,F,F,F,T,F,T,23:10,pork,
2018-01-07,06:46,T,F,F,F,F,T,F,T,23:05,cow,
2018-01-08,06:06,F,T,F,T,F,T,F,T,22:31,pork,
2018-01-09,06:19,F,F,F,F,T,F,F,F,00:24,pork,
2018-01-10,06:43,F,T,T,F,F,T,F,F,00:30,pork,
2018-01-11,05:54,F,T,T,T,F,F,F,F,23:34,vegan,
2018-01-12,06:44,F,F,T,F,F,F,F,F,21:12,pork,
2018-01-13,06:39,F,F,F,F,F,T,F,F,21:54,pork,T
2018-01-14,07:01,T,F,F,T,F,F,F,F,23:24,chicken,
2018-01-15,07:46,F,F,T,F,F,F,F,F,22:22,vegan,
2018-01-16,07:07,T,T,F,F,F,F,F,F,22:31,vegan,
2018-01-17,07:01,F,T,F,F,F,T,F,T,23:54,vegan,
2018-01-18,07:04,F,T,T,T,F,F,F,F,23:31,vegan,
2018-01-19,07:09,F,F,T,T,F,T,T,T,00:19,pork,
2018-01-20,06:19,T,T,F,F,F,F,T,F,22:34,pork,
2018-01-21,06:55,F,T,F,F,F,F,F,F,00:23,fish,
2018-01-22,07:12,T,T,F,T,T,T,F,F,22:27,pork,
2018-01-23,06:05,F,F,F,T,F,T,F,F,00:30,pork,
2018-01-24,07:35,F,F,T,T,F,T,T,F,23:06,chicken,
2018-01-25,07:43,T,T,T,F,F,T,F,T,22:08,vegetarian,
2018-01-26,06:35,F,F,T,T,F,F,F,T,21:22,cow,
2018-01-27,06:50,F,F,F,F,F,T,F,F,22:42,vegan,
2018-01-28,06:25,F,F,F,T,F,T,F,T,22:45,vegan,
2018-01-29,07:28,T,F,T,F,T,F,F,F,23:51,pork,
2018-01-30,06:18,F,F,F,F,F,F,F,F,22:53,chicken,T
2018-01-31,06:51,F,F,T,T,F,T,T,F,22:34,chicken,
2018-02-01,06:26,T,F,F,F,F,F,F,F,00:05,pork,
2018-02-02,07:02,T,T,F,F,F,F,F,T,22:47,pork,
2018-02-03,05:48,F,T,F,F,F,F,F,T,22:25,pork,
2018-02-04,07:53,F,T,T,F,F,F,F,T,23:34,chicken,
2018-02-05,06:21,F,F,F,T,F,F,F,T,22:31,fish,
2018-02-06,07:02,F,F,F,F,F,T,F,F,23:40,fish,
2018-02-07,06:51,T,F,F,T,F,F,T,F,22:24,vegetarian,
2018-02-08,06:30,T,F,F,F,F,T,F,F,22:47,vegetarian,
2018-02-09,06:24,F,F,F,F,F,F,T,F,23:09,chicken,
2018-02-10,07:37,F,T,T,F,F,F,F,T,22:38,chicken,
2018-02-11,06:39,F,T,F,T,F,T,T,F,22:59,chicken,
2018-02-12,07:11,F,F,F,F,F,T,T,F,23:49,fish,
2018-02-13,06:28,F,T,F,F,F,F,F,F,23:25,cow,
2018-02-14,06:34,F,F,F,T,F,T,T,F,23:29,fish,
2018-02-15,07:19,F,T,F,F,F,T,T,F,22:22,fish,
2018-02-16,07:37,F,T,T,T,F,T,F,F,23:51,fish,
2018-02-17,06:53,F,F,F,F,F,F,T,F,23:40,cow,
2018-02-18,06:03,T,F,T,T,T,F,F,F,00:00,cow,T
2018-02-19,08:20,F,F,F,T,F,T,T,F,22:16,vegan,
2018-02-20,06:26,F,F,F,T,F,F,F,T,22:50,vegan,
2018-02-21,05:58,T,F,F,F,T,F,F,T,23:38,vegan,
2018-02-22,08:44,T,F,T,F,F,F,F,F,22:23,vegan,
2018-02-23,06:44,T,T,T,F,F,T,F,F,22:46,vegetarian,
2018-02-24,06:02,T,T,T,F,F,F,F,F,00:56,vegetarian,
2018-02-25,06:33,F,F,F,F,F,T,F,F,00:57,vegetarian,
2018-02-26,07:15,T,F,T,F,F,F,T,T,00:14,fish,
2018-02-27,07:08,F,T,T,F,F,F,F,T,23:56,fish,
2018-02-28,06:26,T,F,T,F,F,T,F,F,21:59,vegetarian,
2018-03-01,08:13,F,F,F,T,F,T,F,T,23:31,vegan,
2018-03-02,06:39,F,F,T,T,F,T,F,F,22:38,vegan,
2018-03-03,06:13,F,F,F,F,F,T,T,F,21:56,vegetarian,
2018-03-04,07:38,F,F,F,F,F,T,T,T,22:29,vegetarian,
2018-03-05,07:53,F,T,F,F,F,T,F,F,23:07,vegetarian,T
2018-03-06,06:27,F,T,F,F,F,F,F,F,22:27,pork,
2018-03-07,06:04,T,F,F,T,F,T,F,F,22:27,vegan,
2018-03-08,07:41,T,T,T,T,T,F,F,T,23:48,vegan,
2018-03-09,05:38,F,T,F,F,F,T,F,T,23:09,pork,
2018-03-10,06:11,T,T,T,F,F,T,F,T,23:14,fish,
2018-03-11,07:39,T,F,T,F,F,T,F,T,23:07,chicken,
2018-03-12,06:58,F,F,F,T,F,T,F,F,22:19,chicken,
2018-03-13,06:49,T,F,T,F,F,T,T,T,21:38,vegetarian,
2018-03-14,07:14,T,F,F,T,F,F,T,F,23:19,vegetarian,
2018-03-15,06:54,F,T,F,F,F,F,F,F,22:30,cow,
2018-03-16,06:08,F,T,F,T,F,F,T,F,20:59,vegetarian,
2018-03-17,07:51,F,T,F,F,F,T,F,F,22:36,vegetarian,
2018-03-18,07:53,F,T,T,T,F,F,F,F,21:54,vegetarian,
2018-03-19,07:08,F,T,T,F,F,T,F,F,23:42,vegetarian,
2018-03-20,07:02,F,T,T,T,F,F,T,F,23:31,vegetarian,T
2018-03-21,08:34,T,F,F,T,F,T,F,T,23:30,pork,
2018-03-22,06:49,T,F,F,T,F,F,F,F,22:20,cow,
2018-03-23,06:50,T,F,F,F,F,F,F,F,23:44,pork,
2018-03-24,07:15,F,F,F,F,F,F,F,F,23:19,chicken,
2018-03-25,07:59,F,F,F,F,F,T,F,F,22:35,pork,
2018-03-26,08:04,F,T,F,T,F,T,T,T,22:33,pork,
2018-03-27,06:50,T,F,T,T,F,T,F,F,23:54,fish,
2018-03-28,07:12,F,F,F,T,F,F,F,F,22:32,fish,
2018-03-29,06:05,T,F,T,F,F,T,F,F,23:18,fish,
2018-03-30,06:48,F,F,F,T,F,F,F,T,00:02,chicken,
2018-03-31,06:26,T,T,T,T,F,T,F,T,00:55,fish,
2018-04-01,06:20,T,F,F,T,F,F,F,F,00:40,pork,T
2018-04-02,08:07,F,T,F,F,F,F,F,F,23:54,pork,
2018-04-03,06:28,T,F,F,F,F,T,T,F,21:30,fish,
2018-04-04,06:39,T,F,F,F,F,T,F,F,22:19,vegetarian,
2018-04-05,07:15,T,F,F,T,F,T,F,F,22:27,vegan,
2018-04-06,07:52,F,T,F,T,F,T,F,F,00:39,vegan,
2018-04-07,07:19,F,F,F,F,F,F,T,F,22:18,vegan,
2018-04-08,08:50,F,T,F,T,F,T,T,T,23:23,vegetarian,
2018-04-09,06:57,F,T,F,F,F,F,F,F,23:06,vegetarian,
2018-04-10,07:10,T,F,F,F,F,T,F,F,22:04,cow,
2018-04-11,07:11,T,F,F,F,F,T,F,F,23:23,pork,
2018-04-12,07:57,T,T,T,F,T,F,T,F,23:24,fish,T
2018-04-13,07:20,F,F,F,F,F,T,F,F,21:45,fish,
2018-04-14,06:55,F,F,F,T,F,F,F,F,00:13,vegetarian,
2018-04-15,06:22,F,F,F,F,F,F,F,T,20:55,pork,
2018-04-16,07:10,F,F,F,F,F,T,T,F,22:25,fish,
2018-04-17,07:56,T,F,F,F,F,T,F,F,23:58,fish,
2018-04-18,06:44,F,F,F,T,F,T,T,F,21:48,fish,
2018-04-19,07:21,F,T,T,T,F,F,F,F,23:21,fish,
2018-04-20,07:10,T,F,F,F,F,T,F,F,21:42,vegan,
2018-04-21,07:35,F,F,F,T,F,F,F,F,22:54,vegan,
2018-04-22,06:28,T,F,F,F,F,T,F,F,20:41,vegan,
2018-04-23,08:34,F,T,T,F,F,T,F,T,22:09,cow,
2018-04-24,06:09,F,T,T,T,F,F,T,F,21:27,cow,
2018-04-25,06:45,F,F,T,T,F,F,T,F,22:36,cow,
2018-04-26,07:38,F,F,F,T,F,T,F,F,22:35,pork,
2018-04-27,07:12,F,F,F,F,F,F,F,T,22:20,chicken,
2018-04-28,07:33,T,F,T,F,F,T,F,T,23:48,chicken,T
2018-04-29,06:40,T,F,F,F,F,T,F,T,22:07,pork,
2018-04-30,06:57,T,F,T,F,F,T,F,F,23:38,vegetarian,
2018-05-01,07:00,T,F,T,F,F,T,T,F,00:38,cow,
2018-05-02,08:03,F,T,T,F,F,F,F,F,23:08,cow,
2018-05-03,07:28,F,T,F,F,F,F,F,F,22:09,vegetarian,
2018-05-04,07:32,F,F,T,T,F,F,F,F,21:45,vegan,
2018-05-05,06:34,F,F,F,T,F,T,F,F,22:17,vegan,
2018-05-06,07:39,F,F,T,T,F,T,F,F,23:42,vegan,
2018-05-07,07:09,F,F,F,F,F,T,F,F,23:09,vegetarian,
2018-05-08,07:56,T,T,F,F,F,T,F,F,23:56,fish,
2018-05-09,08:21,T,T,F,T,F,F,F,F,23:46,vegetarian,
2018-05-10,06:48,F,T,F,F,F,F,T,F,23:08,vegetarian,
2018-05-11,06:44,T,F,F,F,F,T,F,F,23:28,vegetarian,
2018-05-12,06:25,F,F,F,F,F,F,T,F,00:51,chicken,
2018-05-13,06:54,T,T,F,T,F,F,F,T,00:25,chicken,
2018-05-14,06:45,F,T,F,F,F,F,T,F,22:42,fish,
2018-05-15,07:14,F,F,T,T,F,T,F,F,23:59,vegetarian,T
2018-05-16,06:54,F,F,T,T,F,T,F,F,23:35,vegetarian,
2018-05-17,06:46,F,F,T,T,F,T,F,T,00:08,vegetarian,
2018-05-18,07:43,F,T,F,T,F,T,F,F,23:40,pork,
2018-05-19,06:22,F,T,F,F,F,T,T,T,22:02,chicken,
2018-05-20,07:17,T,T,F,F,F,F,T,T,21:23,pork,
2018-05-21,06:44,T,T,F,F,F,F,F,F,23:34,pork,
2018-05-22,07:29,F,F,F,F,T,T,F,T,00:54,chicken,
2018-05-23,07:55,F,T,F,F,T,F,F,F,22:13,cow,
2018-05-24,06:48,F,T,T,T,F,T,F,T,22:49,chicken,
2018-05-25,07:18,T,T,F,F,F,T,F,F,21:58,chicken,
2018-05-26,07:07,F,F,F,F,F,T,F,F,00:11,cow,
2018-05-27,06:28,F,F,F,F,F,F,F,T,20:42,cow,
2018-05-28,07:10,F,F,T,F,F,T,T,F,20:44,cow,
2018-05-29,07:12,F,F,F,T,F,T,F,F,23:23,vegetarian,
2018-05-30,07:17,F,F,F,T,F,F,F,F,22:55,fish,T
2018-05-31,06:52,T,F,F,F,F,T,T,F,22:31,vegetarian,
2018-06-01,07:04,F,T,F,T,F,T,F,T,22:42,cow,
2018-06-02,06:14,F,T,F,T,F,F,F,F,23:32,cow,
2018-06-03,06:46,F,T,T,F,F,F,F,F,22:35,vegetarian,
2018-06-04,07:22,T,F,F,T,F,T,T,F,21:54,fish,
2018-06-05,07:36,F,F,T,T,F,F,F,F,22:04,fish,
2018-06-06,06:43,F,F,F,T,F,F,F,F,23:53,vegetarian,
2018-06-07,07:04,F,F,T,T,F,F,F,F,22:29,chicken,
2018-06-08,07:09,F,F,F,F,F,T,F,F,21:37,vegan,
2018-06-09,07:08,F,F,T,F,F,T,F,F,23:06,chicken,
2018-06-10,07:22,F,F,T,F,F,T,F,T,23:30,chicken,
2018-06-11,05:47,F,F,F,T,F,T,F,T,00:20,vegan,
2018-06-12,06:58,F,T,F,F,T,T,F,T,23:13,vegetarian,
2018-06-13,07:10,F,T,F,T,F,T,F,F,22:20,fish,
2018-06-14,06:20,T,F,F,T,T,T,T,T,23:28,vegetarian,T
2018-06-15,08:07,F,T,T,T,F,T,F,F,23:44,vegetarian,
2018-06-16,07:06,T,F,F,T,F,T,F,F,22:58,vegan,
2018-06-17,08:03,T,T,F,F,F,T,F,F,22:57,fish,
2018-06-18,06:28,T,T,F,T,F,T,F,T,23:16,vegetarian,
2018-06-19,06:24,F,F,T,F,F,T,F,T,22:56,chicken,
2018-06-20,07:09,F,F,T,F,F,T,F,T,23:15,pork,
2018-06-21,05:53,T,F,F,F,F,F,F,F,21:59,vegetarian,
2018-06-22,07:09,F,T,F,T,F,T,F,T,21:51,vegetarian,
2018-06-23,07:04,T,T,F,T,F,F,F,F,22:10,vegetarian,
2018-06-24,07:41,F,F,T,F,F,T,T,F,23:39,fish,
2018-06-25,07:28,T,F,F,F,F,F,F,F,23:16,fish,
2018-06-26,06:43,F,T,F,F,T,F,F,F,00:02,vegetarian,
2018-06-27,06:16,F,T,T,F,F,F,F,T,22:49,cow,
2018-06-28,08:08,F,F,T,T,F,T,F,T,21:51,fish,
2018-06-29,06:28,T,T,T,T,F,T,F,F,00:09,vegetarian,
2018-06-30,06:18,F,F,T,F,F,T,F,F,22:59,vegetarian,T
2018-07-01,06:17,F,T,F,F,F,T,F,F,00:17,cow,
2018-07-02,07:45,F,T,T,T,F,T,F,T,23:36,cow,
2018-07-03,06:39,T,F,F,F,F,T,F,F,01:11,vegan,
2018-07-04,06:30,F,T,F,F,F,T,F,F,22:47,vegetarian,
2018-07-05,07:06,F,T,T,F,F,F,F,T,23:54,chicken,
2018-07-06,06:52,F,F,F,F,F,T,F,F,23:53,chicken,
2018-07-07,06:33,F,F,F,F,F,T,F,T,22:27,fish,
2018-07-08,07:30,T,T,F,F,F,T,T,F,22:50,fish,
2018-07-09,07:43,T,F,F,F,F,T,F,F,21:32,fish,
2018-07-10,07:39,T,F,T,F,F,T,F,T,21:27,vegetarian,
2018-07-11,07:31,F,F,F,F,F,T,T,T,23:08,vegetarian,T
2018-07-12,07:16,T,T,F,T,F,T,F,F,23:48,chicken,
2018-07-13,05:49,F,T,T,T,F,F,F,T,23:38,pork,
2018-07-14,08:07,F,F,T,T,F,F,F,T,23:20,pork,
2018-07-15,07:12,F,T,F,T,F,F,F,F,23:52,cow,
2018-07-16,07:24,F,F,T,F,F,T,F,F,22:25,cow,
2018-07-17,07:45,T,F,T,T,F,F,T,T,22:44,fish,
2018-07-18,07:57,F,F,F,T,F,T,F,F,23:44,chicken,
2018-07-19,07:17,F,T,T,F,F,F,F,F,23:26,fish,
2018-07-20,07:17,T,F,T,F,F,T,F,F,22:47,fish,
2018-07-21,06:36,T,F,F,T,F,T,F,F,00:19,vegan,
2018-07-22,07:01,T,T,T,T,F,T,F,F,21:42,vegan,
2018-07-23,06:26,T,T,T,F,F,F,F,T,22:29,vegan,
2018-07-24,06:31,F,F,T,T,F,T,F,T,22:43,cow,
2018-07-25,06:24,F,F,T,F,F,F,F,F,23:49,vegan,
2018-07-26,06:54,F,F,F,F,F,T,F,T,23:00,cow,T
2018-07-27,07:42,T,F,T,F,T,T,F,F,21:44,cow,
2018-07-28,09:07,T,F,T,F,F,F,T,F,23:31,vegan,
2018-07-29,07:08,F,F,F,F,F,T,F,F,00:05,vegan,
2018-07-30,06:06,F,F,T,F,T,T,F,F,23:44,fish,
2018-07-31,07:51,F,F,F,T,F,F,F,F,23:37,fish,
2018-08-01,06:48,F,F,T,T,F,F,F,F,21:08,fish,
2018-08-02,06:34,T,F,F,F,F,T,F,F,22:06,chicken,
2018-08-03,07:08,F,F,F,T,F,F,F,F,23:29,cow,
2018-08-04,06:10,T,T,F,T,F,T,T,T,22:57,chicken,
2018-08-05,07:09,F,F,F,F,F,T,F,F,23:31,pork,
2018-08-06,06:56,F,T,F,F,F,F,T,T,21:44,pork,
2018-08-07,07:04,F,T,F,F,F,F,F,T,22:56,cow,T
2018-08-08,07:15,F,F,T,F,F,T,F,T,21:37,pork,
2018-08-09,07:03,F,T,T,F,F,T,F,F,21:03,pork,
2018-08-10,07:01,F,F,F,T,F,F,F,T,23:18,pork,
2018-08-11,07:11,F,T,F,F,F,F,F,T,23:51,pork,
2018-08-12,07:17,T,F,T,F,F,T,F,T,23:15,fish,
2018-08-13,06:19,F,F,T,F,F,F,F,T,22:58,vegetarian,
2018-08-14,06:03,F,F,F,T,F,F,F,T,21:26,vegan,
2018-08-15,06:58,F,T,T,F,F,T,F,T,00:00,vegan,
2018-08-16,06:03,F,F,F,F,F,T,F,F,22:57,fish,
2018-08-17,07:04,T,T,F,F,F,F,F,T,00:58,vegetarian,
2018-08-18,07:38,F,F,F,F,F,T,F,T,23:57,pork,
2018-08-19,07:24,F,T,T,F,F,T,T,T,21:00,vegetarian,
2018-08-20,06:18,T,T,F,F,F,T,F,T,23:45,cow,T
2018-08-21,06:26,T,F,T,F,F,T,F,F,21:36,vegan,
2018-08-22,07:13,F,T,F,T,F,F,F,F,22:14,pork,
2018-08-23,06:44,F,F,F,F,F,T,T,F,22:45,vegan,
2018-08-24,06:47,F,T,T,F,F,T,T,F,22:54,chicken,
2018-08-25,07:24,T,F,F,T,F,T,T,T,23:24,chicken,
2018-08-26,06:21,T,F,F,T,F,T,F,F,21:59,chicken,
2018-08-27,06:44,T,F,F,F,F,T,F,F,21:51,chicken,
2018-08-28,06:28,F,F,T,F,F,F,F,T,23:36,chicken,
2018-08-29,06:18,T,F,F,T,F,F,F,F,22:59,chicken,T
2018-08-30,06:26,F,F,F,F,F,T,F,F,23:10,pork,
2018-08-31,07:27,F,F,T,F,F,F,F,T,20:48,pork,
2018-09-01,07:02,F,F,T,T,F,F,T,F,22:49,chicken,
2018-09-02,06:25,F,F,F,F,F,T,F,T,22:07,chicken,
2018-09-03,06:51,F,F,F,F,F,T,F,F,22:05,fish,
2018-09-04,05:54,T,F,F,T,F,F,F,T,23:55,fish,
2018-09-05,06:31,T,T,F,F,F,F,F,F,21:54,fish,
2018-09-06,08:26,T,F,T,F,F,F,F,F,21:54,chicken,
2018-09-07,06:56,T,F,T,T,F,T,F,F,22:40,pork,
2018-09-08,07:29,F,F,F,F,F,T,F,T,23:27,chicken,
2018-09-09,06:57,F,T,T,T,F,T,F,T,22:07,chicken,
2018-09-10,07:14,F,F,F,F,F,T,T,T,00:14,chicken,
2018-09-11,07:27,T,T,F,T,F,F,F,T,00:27,pork,
2018-09-12,06:16,T,T,F,F,T,F,F,F,22:07,pork,
2018-09-13,06:59,F,T,T,T,F,F,F,F,22:45,vegetarian,T
2018-09-14,08:03,T,F,F,F,T,T,F,F,22:13,fish,
2018-09-15,06:28,F,F,T,T,F,T,F,T,21:19,pork,
2018-09-16,06:37,T,F,F,F,F,T,F,F,23:18,pork,
2018-09-17,06:48,F,F,F,T,F,F,F,F,23:44,pork,
2018-09-18,07:11,F,F,T,T,F,T,F,T,01:01,cow,
2018-09-19,07:21,T,F,T,F,F,T,F,T,22:06,cow,
2018-09-20,07:51,F,F,F,F,F,T,F,T,00:20,fish,
2018-09-21,07:20,F,T,T,F,F,F,F,F,00:21,fish,
2018-09-22,06:58,F,F,F,T,F,F,F,F,23:12,fish,
2018-09-23,07:50,T,F,T,T,F,T,F,T,23:36,chicken,
2018-09-24,07:28,F,F,T,F,F,T,T,T,23:52,cow,
2018-09-25,06:00,T,F,F,F,F,F,F,F,00:58,pork,
2018-09-26,08:41,F,F,T,F,F,T,F,F,23:29,vegetarian,
2018-09-27,08:11,T,F,F,F,F,F,T,F,22:56,cow,
2018-09-28,06:53,F,T,F,F,F,F,F,F,22:08,cow,
2018-09-29,07:15,F,F,F,T,F,T,F,F,23:18,chicken,
2018-09-30,07:53,F,F,F,F,F,F,T,F,00:01,pork,T
2018-10-01,06:53,F,F,F,F,F,T,F,T,23:15,pork,
2018-10-02,07:29,F,F,F,T,F,T,F,T,22:13,pork,
2018-10-03,07:44,F,T,F,F,F,T,F,F,23:05,vegan,
2018-10-04,06:19,F,F,F,T,F,F,F,F,22:52,pork,
2018-10-05,06:36,T,F,T,F,F,T,F,F,23:16,vegan,
2018-10-06,07:37,F,F,T,F,F,T,F,F,21:20,vegan,
2018-10-07,07:18,F,T,F,F,T,T,F,T,23:33,vegetarian,
2018-10-08,07:37,T,T,T,F,F,T,F,T,23:36,pork,
2018-10-09,06:55,F,T,T,F,T,T,F,T,23:27,chicken,
2018-10-10,06:48,T,F,T,F,F,F,T,F,23:00,vegetarian,
2018-10-11,05:40,F,T,T,T,F,F,F,T,21:12,chicken,
2018-10-12,06:14,T,T,F,T,F,F,F,T,22:59,chicken,
2018-10-13,07:02,F,F,F,F,T,T,F,T,00:04,pork,
2018-10-14,07:33,F,F,F,F,F,T,F,T,22:08,fish,T
2018-10-15,07:21,F,T,F,T,F,T,T,T,21:01,vegetarian,
2018-10-16,06:55,T,F,F,F,F,F,F,T,21:28,vegetarian,
2018-10-17,06:49,F,F,F,F,F,F,F,F,23:19,fish,
2018-10-18,07:09,T,T,F,F,F,F,F,T,23:22,cow,
2018-10-19,07:03,F,F,F,F,F,T,F,F,23:53,cow,
2018-10-20,07:56,F,F,T,T,F,T,F,T,22:57,vegan,
2018-10-21,07:06,T,F,F,T,F,F,T,T,21:30,pork,
2018-10-22,06:01,F,F,F,T,F,T,T,T,22:11,pork,
2018-10-23,06:09,F,F,T,F,F,T,F,T,23:49,pork,
2018-10-24,08:01,F,F,F,F,F,T,F,F,23:08,pork,
2018-10-25,06:13,F,F,F,F,F,F,F,F,23:39,vegan,
2018-10-26,07:31,T,T,T,T,F,T,F,T,23:26,pork,
2018-10-27,06:49,F,F,T,T,F,T,F,T,22:48,vegetarian,
2018-10-28,06:53,T,T,F,T,F,F,F,F,22:50,vegetarian,
2018-10-29,06:55,T,F,T,T,F,T,T,F,00:51,vegetarian,T
2018-10-30,07:49,F,T,F,F,F,F,F,F,23:25,vegetarian,
2018-10-31,06:52,F,F,F,F,F,T,F,F,22:52,fish,
2018-11-01,06:59,T,T,F,T,F,F,F,T,23:27,cow,
2018-11-02,05:59,F,F,F,T,F,T,F,F,23:13,pork,
2018-11-03,07:08,T,T,F,F,F,F,F,F,20:51,cow,
2018-11-04,07:21,F,T,T,F,F,T,F,T,23:39,cow,
2018-11-05,07:10,F,T,F,F,F,T,F,F,00:49,cow,
2018-11-06,07:56,F,F,T,T,F,T,F,F,22:13,cow,
2018-11-07,07:02,F,T,F,F,F,T,F,T,00:27,vegan,
2018-11-08,07:12,F,F,F,F,F,F,T,F,22:45,cow,
2018-11-09,08:06,T,T,F,T,F,F,F,F,23:18,pork,
2018-11-10,05:58,F,T,F,F,F,F,F,F,00:04,vegetarian,
2018-11-11,06:42,T,F,F,F,F,F,F,F,22:17,fish,T
2018-11-12,07:57,F,T,T,F,F,T,T,F,00:15,fish,
2018-11-13,07:37,F,F,F,F,F,T,F,F,21:47,chicken,
2018-11-14,07:27,F,F,T,T,F,T,T,T,22:07,vegetarian,
2018-11-15,07:33,F,F,T,T,F,F,T,T,22:24,cow,
2018-11-16,07:13,F,T,F,T,F,T,F,F,23:40,vegan,
2018-11-17,08:05,F,T,F,T,F,T,F,F,22:40,pork,
2018-11-18,07:15,F,F,F,T,T,F,F,T,21:29,chicken,
2018-11-19,07:10,F,F,T,F,F,F,T,F,22:47,fish,
2018-11-20,07:06,F,T,T,F,F,T,T,T,22:13,fish,
2018-11-21,07:08,F,T,F,T,F,T,F,F,23:44,chicken,
2018-11-22,06:14,F,F,F,F,F,F,T,F,22:39,fish,
2018-11-23,07:31,F,T,T,F,F,F,F,T,23:04,fish,
2018-11-24,06:55,T,T,T,F,T,F,F,F,22:36,fish,
2018-11-25,08:13,T,T,T,F,F,T,T,F,23:26,pork,T
2018-11-26,06:57,F,F,T,T,F,F,F,T,22:49,pork,
2018-11-27,07:17,T,F,T,F,F,F,F,F,23:20,pork,
2018-11-28,07:10,T,T,T,F,F,F,F,T,20:24,cow,
2018-11-29,06:35,F,T,F,T,F,T,T,T,23:06,chicken,
2018-11-30,07:40,T,T,F,F,F,T,F,F,23:25,vegetarian,
2018-12-01,08:16,T,T,F,F,F,T,T,F,22:48,fish,
2018-12-02,06:59,F,F,F,F,F,T,T,T,23:40,chicken,
2018-12-03,06:48,F,F,F,F,F,T,F,T,23:44,fish,
2018-12-04,06:46,F,T,F,F,F,F,F,F,00:18,cow,
2018-12-05,05:44,F,F,T,T,F,T,F,F,23:06,cow,
2018-12-06,06:53,F,F,T,F,F,F,F,T,21:05,vegan,
2018-12-07,07:10,F,F,F,F,F,F,T,F,20:43,vegan,
2018-12-08,07:42,T,T,F,T,F,T,F,F,21:24,vegetarian,
2018-12-09,07:38,F,F,T,F,F,T,F,T,22:58,pork,
2018-12-10,06:43,F,F,F,F,F,F,F,F,22:51,fish,
2018-12-11,06:49,T,T,T,F,F,T,F,F,23:17,chicken,
2018-12-12,07:45,F,T,F,T,F,F,F,F,22:22,pork,
2018-12-13,06:53,F,F,F,F,F,T,F,F,22:16,cow,
2018-12-14,06:40,F,T,T,T,T,T,F,F,23:33,cow,T
2018-12-15,07:56,T,T,F,T,F,T,F,F,23:39,chicken,
2018-12-16,07:42,F,F,F,F,F,T,F,F,22:45,chicken,
2018-12-17,07:01,T,F,F,F,F,T,F,F,22:58,pork,
2018-12-18,06:36,T,T,F,F,F,F,F,T,23:24,cow,
2018-12-19,05:40,T,T,F,F,F,T,F,F,23:30,cow,
2018-12-20,07:24,F,T,T,T,F,F,F,F,21:51,cow,
2018-12-21,06:24,T,F,F,F,F,T,F,F,22:17,pork,
2018-12-22,05:41,F,T,F,F,F,F,F,F,21:46,cow,
2018-12-23,08:03,F,F,T,F,F,T,F,T,22:30,cow,
2018-12-24,07:26,F,F,T,F,F,T,F,F,23:49,pork,
2018-12-25,06:14,T,T,F,T,F,T,F,F,23:33,cow,T
2018-12-26,06:11,F,F,F,T,F,T,F,F,21:54,cow,
2018-12-27,07:35,F,T,F,F,F,T,T,F,23:31,pork,
2018-12-28,06:25,F,F,T,T,T,T,T,T,23:05,cow,
2018-12-29,07:52,F,F,F,F,F,T,F,F,22:30,pork,
2018-12-30,07:25,F,T,F,F,F,T,T,T,21:36,chicken,
2018-12-31,07:21,T,T,F,F,F,T,F,T,22:50,pork,
2019-01-01,07:16,F,T,F,F,F,T,T,T,23:41,cow,
2019-01-02,07:08,T,F,F,T,F,F,T,F,20:50,cow,
2019-01-03,07:35,T,T,F,F,F,T,F,F,22:36,chicken,T
2019-01-04,06:42,T,F,F,F,F,T,F,F,01:15,pork,
2019-01-05,07:03,T,T,F,T,F,F,T,F,23:40,cow,
2019-01-06,07:30,F,F,F,F,F,T,F,T,23:16,vegetarian,
2019-01-07,07:23,F,T,F,T,F,T,F,F,22:16,vegetarian,
2019-01-08,06:12,F,T,F,F,F,T,T,T,22:19,fish,
2019-01-09,06:40,T,T,T,F,F,F,T,F,22:55,fish,
2019-01-10,07:10,T,F,T,T,F,F,F,F,00:36,fish,
2019-01-11,06:44,F,T,F,F,F,T,F,F,23:28,chicken,
2019-01-12,08:11,T,T,F,F,F,F,F,T,22:08,fish,
2019-01-13,06:44,F,F,F,F,F,T,F,F,00:11,fish,
2019-01-14,06:54,F,T,T,T,F,T,F,T,22:42,fish,T
2019-01-15,07:31,F,T,T,F,F,T,F,F,00:42,pork,
2019-01-16,07:13,T,F,F,F,F,F,F,F,22:26,pork,
2019-01-17,06:54,T,T,T,F,F,F,T,T,22:00,pork,
2019-01-18,06:30,T,F,F,F,F,T,F,F,23:10,fish,
2019-01-19,07:12,F,F,T,T,F,T,T,F,23:59,vegetarian,
2019-01-20,07:42,F,F,F,F,T,F,F,T,00:02,pork,
2019-01-21,07:19,F,F,F,T,F,F,F,T,23:10,fish,
2019-01-22,06:29,F,T,T,T,F,T,F,F,22:01,fish,
2019-01-23,08:09,T,F,F,F,F,T,F,F,22:30,chicken,
2019-01-24,06:02,F,F,T,F,F,T,F,F,20:59,vegan,
2019-01-25,05:57,F,T,T,F,F,T,F,T,22:05,vegetarian,
2019-01-26,07:38,F,F,F,T,F,T,T,T,22:49,vegetarian,
2019-01-27,07:09,T,F,T,F,F,T,T,F,23:23,vegan,
2019-01-28,06:38,F,F,F,F,F,F,F,F,22:40,vegan,
2019-01-29,06:16,T,F,F,F,F,T,F,F,22:57,cow,T
2019-01-30,08:33,F,T,F,T,F,F,F,T,22:36,pork,
2019-01-31,07:05,F,F,F,T,F,F,F,F,23:45,cow,
2019-02-01,07:21,T,F,F,F,F,F,F,F,22:06,chicken,
2019-02-02,07:13,F,T,F,F,F,F,F,T,23:50,chicken,
2019-02-03,07:17,T,T,F,F,F,F,F,T,00:58,pork,
2019-02-04,07:22,T,T,F,F,F,T,F,F,23:28,cow,
2019-02-05,07:29,F,F,F,T,F,T,F,F,22:28,cow,
2019-02-06,06:45,T,F,F,F,F,T,F,F,22:28,chicken,
2019-02-07,06:48,F,F,F,T,F,T,T,F,00:13,fish,
2019-02-08,05:50,T,F,T,T,F,F,F,F,21:52,vegan,
2019-02-09,06:29,T,F,F,F,F,F,F,T,22:03,vegan,
2019-02-10,07:11,F,T,T,T,F,T,F,T,21:50,chicken,T
2019-02-11,07:42,F,F,F,F,F,T,F,F,21:43,chicken,
2019-02-12,07:24,F,T,T,T,F,F,F,T,21:57,fish,
2019-02-13,06:46,F,F,T,F,F,T,F,F,23:47,fish,
2019-02-14,06:09,T,T,T,F,F,F,F,T,00:06,fish,
2019-02-15,05:09,T,F,F,F,F,T,F,T,22:18,cow,
2019-02-16,07:46,F,T,F,F,F,T,F,F,23:12,cow,
2019-02-17,06:36,F,F,T,T,F,F,F,T,23:46,vegetarian,
2019-02-18,06:42,F,F,F,T,F,F,F,T,23:06,vegetarian,
2019-02-19,07:05,F,T,T,F,F,F,F,T,22:03,vegetarian,
2019-02-20,06:04,F,F,F,F,F,T,F,T,21:32,pork,
2019-02-21,06:46,T,F,F,T,F,T,F,F,00:01,cow,
2019-02-22,08:21,F,T,F,F,F,F,F,F,23:30,cow,
2019-02-23,07:20,F,T,F,F,F,F,F,T,23:35,pork,T
2019-02-24,07:14,T,T,F,T,F,F,F,T,21:54,cow,
2019-02-25,05:57,T,F,F,T,F,T,T,F,23:14,pork,
2019-02-26,08:30,F,F,F,F,F,F,F,T,23:38,pork,
2019-02-27,06:03,F,T,F,T,F,T,F,F,23:19,pork,
2019-02-28,08:17,T,T,F,F,F,T,F,T,22:15,pork,
2019-03-01,05:35,F,T,T,T,F,T,F,F,00:01,pork,
2019-03-02,07:56,F,F,F,F,T,F,F,T,21:28,chicken,
2019-03-03,08:05,F,F,F,T,F,T,F,F,23:56,vegetarian,
2019-03-04,06:27,F,F,T,F,F,T,T,F,00:05,cow,
2019-03-05,07:17,F,F,T,F,F,F,F,T,00:34,cow,
2019-03-06,07:22,F,F,F,F,F,T,F,T,22:39,vegetarian,
2019-03-07,06:27,F,T,F,T,F,T,F,T,22:00,vegetarian,
2019-03-08,06:02,T,F,F,T,F,T,F,F,23:48,fish,
2019-03-09,06:07,T,F,F,F,F,F,F,F,22:18,chicken,
2019-03-10,07:22,F,F,F,F,F,F,F,F,23:03,cow,
2019-03-11,06:57,F,F,F,T,F,F,F,F,22:41,cow,
2019-03-12,06:37,T,T,F,T,F,T,F,F,22:06,pork,
2019-03-13,07:39,F,T,F,F,F,F,F,F,23:19,cow,T
2019-03-14,07:20,F,T,F,T,F,F,T,F,21:36,cow,
2019-03-15,06:30,F,F,F,F,T,F,F,F,23:36,cow,
2019-03-16,06:12,T,T,F,T,F,F,F,F,22:02,chicken,
2019-03-17,07:21,F,T,T,T,F,T,F,F,21:16,pork,
2019-03-18,06:38,F,F,T,T,F,F,F,F,22:57,cow,
2019-03-19,07:04,F,F,F,T,F,T,F,T,23:26,cow,
2019-03-20,08:03,F,F,F,F,F,T,F,T,23:35,cow,
2019-03-21,07:20,F,T,F,T,F,F,F,F,23:49,cow,
2019-03-22,06:26,T,F,T,F,F,T,F,F,20:39,vegetarian,
2019-03-23,07:06,F,F,F,F,F,T,T,F,22:00,vegetarian,
2019-03-24,06:22,F,F,T,T,F,F,F,F,23:06,vegetarian,
2019-03-25,08:04,F,F,T,F,F,T,F,F,00:31,vegan,
2019-03-26,06:38,F,F,F,F,F,T,F,F,23:47,vegetarian,
2019-03-27,07:08,F,F,F,T,F,T,F,T,00:54,vegan,
2019-03-28,07:12,F,F,F,F,F,F,F,F,22:29,vegan,
2019-03-29,07:06,F,T,F,T,F,T,F,F,23:16,pork,T
2019-03-30,05:42,F,F,F,F,F,F,F,F,21:54,cow,
2019-03-31,06:02,F,T,T,T,F,T,T,T,22:36,cow,
2019-04-01,06:42,T,T,F,T,F,T,F,F,22:16,chicken,
2019-04-02,07:13,F,T,F,T,F,T,F,F,22:22,chicken,
2019-04-03,06:54,T,F,T,F,F,T,F,F,22:36,cow,
2019-04-04,06:22,T,F,F,F,T,F,F,F,23:00,pork,
2019-04-05,06:06,T,T,T,T,F,F,F,T,23:01,chicken,
2019-04-06,06:44,F,T,T,T,F,F,T,F,23:33,chicken,
2019-04-07,06:41,T,T,T,T,F,T,F,F,23:08,chicken,
2019-04-08,07:21,F,T,F,F,F,T,F,F,22:39,vegetarian,
2019-04-09,06:47,F,F,T,T,F,T,F,T,22:29,fish,
2019-04-10,07:24,F,F,T,F,T,F,T,F,22:42,vegetarian,T
2019-04-11,06:36,F,F,F,T,F,T,F,F,22:33,fish,
2019-04-12,06:50,F,T,T,T,F,T,F,T,23:29,chicken,
2019-04-13,06:46,F,F,T,T,F,T,F,F,23:52,chicken,
2019-04-14,06:29,F,T,T,F,F,F,F,F,00:16,chicken,
2019-04-15,07:25,F,F,F,F,F,F,F,T,22:12,chicken,
2019-04-16,06:27,T,T,F,F,F,T,F,F,23:28,chicken,
2019-04-17,06:39,T,T,T,F,F,F,T,F,21:36,chicken,
2019-04-18,06:57,T,F,T,F,F,F,T,T,23:22,pork,
2019-04-19,06:08,F,F,F,T,F,T,F,T,00:05,cow,
2019-04-20,06:47,T,T,F,F,F,F,F,F,22:51,cow,
2019-04-21,06:32,F,T,F,F,F,T,F,T,00:04,pork,
2019-04-22,06:44,F,F,F,T,F,T,T,T,21:52,chicken,
2019-04-23,06:58,F,F,T,F,F,F,F,T,22:07,pork,
2019-04-24,06:28,T,T,F,F,F,T,F,F,22:52,cow,
2019-04-25,06:51,F,T,T,T,F,T,F,F,00:01,cow,
2019-04-26,07:52,F,F,F,F,F,T,F,F,22:35,cow,
2019-04-27,06:59,F,F,F,T,F,T,F,T,22:33,chicken,T
2019-04-28,07:46,F,T,F,T,F,F,F,F,22:01,chicken,
2019-04-29,07:14,F,F,T,T,F,F,F,F,23:12,chicken,
2019-04-30,07:31,F,T,T,F,F,T,F,T,00:15,chicken,
2019-05-01,06:29,F,T,T,F,F,F,F,F,23:42,pork,
2019-05-02,07:04,F,F,F,T,F,F,F,F,23:42,pork,
2019-05-03,07:05,F,T,F,T,F,T,F,F,22:48,cow,
2019-05-04,06:35,F,F,F,F,F,F,F,F,22:26,fish,
2019-05-05,06:27,F,F,T,T,F,T,F,T,23:41,fish,
2019-05-06,06:00,T,F,T,T,F,F,F,F,22:58,vegan,
2019-05-07,08:00,F,T,F,F,T,F,T,F,22:50,cow,
2019-05-08,06:21,F,F,F,F,F,T,F,T,23:54,cow,
2019-05-09,07:54,F,F,T,T,T,F,F,F,22:48,vegetarian,
2019-05-10,06:41,F,F,T,F,F,T,F,T,22:10,vegetarian,
2019-05-11,06:26,T,F,T,T,F,F,F,T,23:55,vegetarian,T
2019-05-12,07:25,T,F,F,T,F,F,T,T,23:05,vegetarian,
2019-05-13,06:35,F,F,T,F,F,T,F,T,21:58,vegan,
2019-05-14,07:23,F,T,F,F,F,T,F,T,21:53,vegetarian,
2019-05-15,06:47,F,F,T,F,F,F,F,F,23:06,vegetarian,
2019-05-16,07:19,T,T,F,F,T,T,T,F,01:20,fish,
2019-05-17,06:21,T,F,F,T,F,T,F,F,22:36,chicken,T
2019-05-18,07:33,T,F,T,F,F,F,F,T,22:40,pork,
2019-05-19,07:20,F,T,F,T,F,F,F,F,00:31,pork,
2019-05-20,06:23,F,F,T,F,F,F,F,T,22:57,pork,
2019-05-21,08:46,F,T,F,T,F,F,T,T,21:33,vegan,
2019-05-22,07:22,T,T,F,F,F,F,T,F,21:26,fish,
2019-05-23,08:32,F,F,F,T,F,T,F,F,00:14,fish,
2019-05-24,08:04,F,T,F,T,F,T,F,T,23:40,chicken,
2019-05-25,06:52,F,F,F,F,F,F,F,F,23:50,cow,
2019-05-26,06:44,T,T,F,F,F,T,F,T,22:57,fish,
2019-05-27,06:44,T,F,T,T,F,T,F,T,22:16,pork,
2019-05-28,05:47,F,F,T,F,F,T,F,T,22:47,vegetarian,
2019-05-29,06:32,T,F,T,F,F,F,F,T,23:08,vegetarian,
2019-05-30,07:10,F,F,F,F,F,T,F,T,22:10,fish,
2019-05-31,08:01,F,T,T,T,F,T,F,T,23:34,chicken,T
2019-06-01,06:29,T,F,T,F,F,T,T,F,21:44,fish,
2019-06-02,07:35,F,T,T,F,T,F,T,F,22:40,fish,
2019-06-03,06:10,T,T,F,F,F,F,F,F,22:48,cow,
2019-06-04,06:37,F,F,F,T,F,F,F,F,22:19,cow,
2019-06-05,06:42,F,T,F,T,F,F,F,F,20:48,chicken,
2019-06-06,07:15,T,F,T,F,T,F,F,F,23:27,chicken,
2019-06-07,07:18,F,F,F,F,F,T,F,T,22:15,pork,
2019-06-08,07:38,F,F,T,T,F,T,T,T,00:20,pork,
2019-06-09,07:31,F,T,F,F,F,F,F,F,22:39,vegan,
2019-06-10,07:10,T,F,F,F,F,T,F,F,22:28,vegan,
2019-06-11,07:16,F,T,T,F,F,T,F,F,23:05,vegan,
2019-06-12,08:04,T,T,T,F,F,F,F,T,00:03,vegetarian,
2019-06-13,06:40,T,T,F,F,F,T,F,T,22:26,cow,
2019-06-14,07:31,T,T,F,F,F,F,F,F,00:01,cow,
2019-06-15,05:48,T,F,F,T,F,T,T,T,00:26,vegan,
2019-06-16,07:16,F,F,F,F,F,T,F,T,23:59,cow,
2019-06-17,06:41,F,T,F,F,F,F,F,F,00:38,vegetarian,T
2019-06-18,07:00,F,T,T,T,F,F,T,T,00:18,vegan,
2019-06-19,07:42,F,T,F,F,F,T,F,F,00:31,vegan,
2019-06-20,07:07,T,T,T,F,F,T,F,T,00:36,vegetarian,
2019-06-21,07:35,F,F,F,F,F,F,F,F,23:12,vegan,
2019-06-22,07:59,T,F,T,T,F,F,F,F,22:34,chicken,
2019-06-23,07:16,T,T,T,F,F,F,F,F,20:44,vegan,
2019-06-24,07:47,F,T,F,T,F,T,F,F,21:41,vegan,
2019-06-25,06:47,F,F,F,F,F,T,F,F,22:33,vegetarian,
2019-06-26,07:00,F,F,T,T,F,T,F,F,22:37,vegetarian,
2019-06-27,06:39,T,T,F,T,F,T,F,F,22:51,vegetarian,
2019-06-28,07:42,F,F,F,F,F,F,F,T,22:00,fish,
2019-06-29,07:17,F,T,F,T,F,T,T,F,21:24,fish,
2019-06-30,06:40,F,T,T,T,T,F,F,T,22:52,vegetarian,
2019-07-01,07:06,T,F,F,F,F,T,T,T,22:49,pork,T
2019-07-02,07:42,T,F,T,F,F,T,F,F,22:12,chicken,
2019-07-03,06:58,F,T,F,F,F,F,F,F,22:15,chicken,
2019-07-04,06:22,T,T,F,F,F,T,F,T,22:04,pork,
2019-07-05,07:05,T,T,F,T,F,T,T,T,22:36,pork,
2019-07-06,05:41,F,T,F,F,F,T,F,F,22:09,pork,
2019-07-07,07:31,F,T,F,F,F,T,F,F,00:16,pork,
2019-07-08,06:43,F,F,F,F,F,T,F,F,23:14,cow,
2019-07-09,06:41,T,F,T,F,F,T,F,F,22:02,pork,
2019-07-10,07:35,T,T,F,F,F,F,F,F,22:43,vegetarian,
2019-07-11,06:05,F,T,T,T,F,F,F,F,21:49,fish,
2019-07-12,08:18,F,T,T,F,F,T,F,F,00:01,vegetarian,T
2019-07-13,06:41,F,F,F,F,F,F,F,T,00:23,chicken,
2019-07-14,06:39,F,F,F,F,F,F,T,F,00:15,fish,
2019-07-15,07:41,F,F,T,F,F,F,T,T,21:51,cow,
2019-07-16,07:28,F,F,F,T,F,F,F,F,22:55,cow,
2019-07-17,08:38,T,F,F,T,F,T,F,F,22:36,fish,
2019-07-18,06:52,T,F,T,F,F,F,T,F,23:34,vegetarian,
2019-07-19,06:55,F,F,F,T,F,T,T,T,22:00,pork,
2019-07-20,06:01,F,T,F,F,F,F,F,F,22:19,chicken,
2019-07-21,06:47,T,F,F,F,F,F,F,F,22:35,chicken,
2019-07-22,06:31,T,T,F,F,F,T,F,F,23:09,chicken,
2019-07-23,06:42,F,F,F,F,F,T,T,T,23:42,vegetarian,
2019-07-24,05:50,F,F,F,T,F,T,F,T,22:40,fish,T
2019-07-25,08:06,F,F,F,T,F,T,F,F,23:40,vegetarian,
2019-07-26,06:03,T,T,T,T,F,F,F,F,23:49,chicken,
2019-07-27,05:08,T,T,F,F,F,T,T,T,22:47,chicken,
2019-07-28,06:12,F,F,T,T,T,T,T,T,21:45,chicken,
2019-07-29,06:36,T,F,F,T,F,F,F,F,21:50,pork,
2019-07-30,06:14,F,F,T,T,F,T,F,F,23:36,chicken,
2019-07-31,07:44,F,T,F,T,F,F,F,F,22:31,cow,
2019-08-01,06:54,T,F,F,F,F,T,F,F,21:17,cow,
2019-08-02,07:01,F,T,F,F,F,F,F,F,23:37,vegetarian,T
2019-08-03,07:24,F,T,T,T,F,F,T,F,23:08,vegetarian,
2019-08-04,07:11,F,F,T,T,F,F,F,F,21:36,vegetarian,
2019-08-05,07:39,F,T,F,T,T,F,F,F,00:11,fish,
2019-08-06,06:16,T,F,F,T,F,T,F,T,23:50,vegetarian,
2019-08-07,06:38,T,F,T,F,F,F,T,T,23:08,vegetarian,
2019-08-08,07:27,F,T,F,F,F,F,F,F,21:44,vegan,
2019-08-09,05:19,F,T,T,F,F,T,F,T,21:36,vegan,
2019-08-10,06:05,T,T,F,F,F,F,F,T,22:42,chicken,
2019-08-11,07:20,T,F,F,T,F,T,F,F,21:17,chicken,
2019-08-12,06:41,F,T,F,T,T,T,F,T,23:24,chicken,
2019-08-13,07:37,F,T,F,T,T,T,F,F,21:35,vegan,
2019-08-14,07:32,T,F,F,T,F,F,F,F,23:10,vegan,
2019-08-15,06:12,F,F,T,T,F,F,T,T,22:43,chicken,
2019-08-16,07:16,F,F,F,T,F,F,F,T,23:43,vegetarian,T
2019-08-17,07:48,F,F,T,F,F,T,F,F,22:04,fish,
2019-08-18,07:06,F,T,T,T,F,T,F,F,23:16,chicken,
2019-08-19,06:21,F,T,F,F,F,T,F,T,21:36,chicken,
2019-08-20,07:35,T,T,T,F,F,T,F,T,23:48,chicken,
2019-08-21,07:25,F,T,T,F,F,F,T,F,22:53,pork,
2019-08-22,07:22,T,F,F,F,F,T,F,T,23:30,fish,
2019-08-23,07:29,T,T,T,T,F,T,F,T,21:41,chicken,
2019-08-24,05:00,T,F,T,F,T,T,F,T,23:30,pork,
2019-08-25,07:35,T,F,F,T,F,F,F,F,23:18,pork,
2019-08-26,08:12,T,T,F,F,F,T,F,T,23:22,cow,
2019-08-27,07:17,T,F,F,F,F,T,F,F,23:19,cow,
2019-08-28,07:08,T,T,T,T,F,F,F,T,22:48,cow,
2019-08-29,07:28,F,T,F,T,F,F,F,F,00:14,fish,
2019-08-30,07:14,F,F,F,F,F,T,F,T,22:51,chicken,
2019-08-31,07:26,T,T,F,F,F,F,F,F,22:16,chicken,
2019-09-01,07:00,F,F,F,F,F,T,F,F,22:56,vegetarian,
2019-09-02,06:29,F,F,T,F,F,T,T,T,22:03,chicken,
2019-09-03,06:20,T,F,T,F,F,T,F,T,22:32,chicken,T
2019-09-04,06:20,T,F,T,T,T,F,F,F,22:49,cow,
2019-09-05,06:05,T,T,T,F,F,F,F,T,22:37,cow,
2019-09-06,06:17,T,T,F,T,F,T,F,T,23:12,cow,
2019-09-07,08:10,T,F,F,F,F,T,F,T,00:57,cow,
2019-09-08,07:30,T,F,T,F,F,F,F,F,23:34,pork,
2019-09-09,06:35,T,T,T,F,F,T,F,T,00:04,vegetarian,
2019-09-10,06:44,F,F,F,T,F,T,F,F,22:30,cow,
2019-09-11,07:05,F,T,T,F,F,T,F,F,22:25,cow,
2019-09-12,06:34,F,T,F,T,F,F,F,T,22:37,pork,
2019-09-13,07:03,F,F,F,T,F,T,F,F,23:51,cow,
2019-09-14,07:31,T,F,F,T,F,F,F,F,20:51,pork,
2019-09-15,06:59,F,F,F,F,F,T,F,F,21:58,cow,
2019-09-16,07:13,T,T,F,F,F,T,F,F,23:06,pork,
2019-09-17,07:35,F,T,F,T,F,T,F,T,22:47,cow,
2019-09-18,06:49,F,F,F,F,F,T,T,T,00:58,vegan,
2019-09-19,07:11,F,T,T,F,F,T,F,T,23:27,vegan,
2019-09-20,06:48,T,F,F,F,F,T,F,T,22:20,fish,
2019-09-21,06:59,F,T,T,T,F,T,F,F,21:25,chicken,
2019-09-22,06:47,T,F,F,T,F,T,F,F,22:40,vegetarian,T
2019-09-23,06:39,F,F,T,F,F,T,F,F,21:42,vegan,
2019-09-24,07:07,F,T,T,T,F,F,F,F,23:28,chicken,
2019-09-25,07:23,F,F,F,F,F,T,F,T,23:10,chicken,
2019-09-26,07:06,F,F,F,F,F,F,F,F,23:19,vegetarian,
2019-09-27,07:20,T,F,F,F,F,T,F,T,01:05,vegetarian,
2019-09-28,06:30,F,T,F,F,F,T,F,T,22:06,vegetarian,
2019-09-29,06:12,F,F,F,F,F,T,F,T,22:48,fish,
2019-09-30,07:17,T,T,F,T,F,F,F,F,21:47,chicken,
2019-10-01,07:28,F,F,F,F,F,T,F,T,22:55,chicken,
2019-10-02,07:02,F,F,T,F,F,T,F,T,00:36,cow,
2019-10-03,07:54,F,T,F,F,F,T,F,F,23:34,cow,
2019-10-04,07:36,T,T,F,F,F,T,T,F,22:53,fish,T
2019-10-05,08:47,F,F,F,F,F,F,F,F,23:15,vegan,
2019-10-06,06:52,F,T,T,T,F,F,T,T,21:47,fish,
2019-10-07,06:20,F,F,T,F,F,F,F,T,22:36,fish,
2019-10-08,06:30,F,T,F,T,F,T,T,F,23:05,fish,
2019-10-09,06:37,T,F,F,T,F,T,F,F,23:06,chicken,
2019-10-10,07:19,F,T,T,F,F,T,F,T,21:28,vegan,
2019-10-11,05:34,F,T,F,F,F,F,F,F,23:20,pork,
2019-10-12,07:53,T,F,T,F,F,F,F,F,23:17,fish,
2019-10-13,06:50,T,T,F,F,F,F,F,F,22:37,vegan,
2019-10-14,06:50,T,F,T,F,F,F,F,F,23:00,pork,
2019-10-15,06:17,F,F,F,F,F,T,T,T,21:31,pork,
2019-10-16,06:55,T,F,T,T,F,F,F,F,21:31,vegetarian,
2019-10-17,07:01,T,T,F,F,F,F,F,T,23:08,fish,
2019-10-18,06:55,F,F,F,F,T,F,F,F,22:20,pork,
2019-10-19,07:14,T,F,F,F,F,F,F,F,22:59,pork,
2019-10-20,06:36,T,T,F,F,T,F,F,F,23:50,pork,
2019-10-21,06:24,T,F,T,T,F,F,F,T,22:50,cow,T
2019-10-22,07:22,F,F,T,F,F,T,F,F,20:11,cow,
2019-10-23,07:04,T,F,T,T,F,F,F,F,22:51,vegetarian,
2019-10-24,07:08,F,T,T,F,F,F,F,F,22:31,fish,
2019-10-25,07:42,T,F,F,T,F,T,T,T,22:46,chicken,
2019-10-26,06:19,F,F,F,T,F,F,F,T,23:54,cow,
2019-10-27,06:26,T,T,F,T,F,T,T,F,21:25,cow,
2019-10-28,07:50,T,T,T,T,F,T,F,F,23:15,cow,
2019-10-29,06:01,F,F,T,F,F,F,F,F,00:34,fish,
2019-10-30,06:08,T,F,F,T,F,T,F,F,22:22,fish,
2019-10-31,07:33,F,T,T,F,F,T,F,T,23:28,chicken,
